# Blender v2.79 (sub 0) OBJ File: 'assets.blend'
# www.blender.org
v 0.014841 0.699787 0.704085
v -0.085340 0.599606 0.704085
v 0.014841 0.599606 0.704085
v 0.115022 0.900149 0.704085
v 0.115022 0.699787 0.704085
v 0.215203 1.300873 0.704085
v 0.215203 0.900149 0.704085
v 0.115022 1.300873 0.704085
v 0.115022 1.401054 0.704085
v -0.085340 1.401054 0.704085
v 0.215203 0.900149 0.603904
v 0.115022 0.699787 0.603904
v 0.215203 0.699787 0.603904
v 0.115022 0.900149 0.603904
v 0.215203 1.401054 0.603904
v 0.115022 1.300873 0.603904
v 0.215203 1.300873 0.603904
v 0.115022 1.401054 0.603904
v -0.085340 1.401054 0.603904
v -0.185521 0.699787 0.603904
v -0.085340 0.699787 0.603904
v -0.185521 1.401054 0.603904
v 0.115022 1.501235 0.603904
v -0.085340 1.501235 0.603904
v 0.115022 0.699787 0.503723
v -0.085340 0.499425 0.503723
v 0.115022 0.499425 0.503723
v -0.085340 0.699787 0.503723
v 0.315384 0.900149 0.503723
v 0.215203 0.699787 0.503723
v 0.315384 0.699787 0.503723
v 0.415565 1.100511 0.503723
v 0.415565 0.900149 0.503723
v 0.315384 1.100511 0.503723
v 0.315384 1.401054 0.503723
v 0.215203 1.401054 0.503723
v -0.185521 1.401054 0.503723
v -0.285702 0.699787 0.503723
v -0.185521 0.699787 0.503723
v -0.285702 1.401054 0.503723
v 0.215203 1.501235 0.503723
v 0.115022 1.401054 0.503723
v 0.115022 1.501235 0.503723
v -0.085340 1.501235 0.503723
v -0.085340 1.401054 0.503723
v -0.185521 1.501235 0.503723
v 0.315383 0.098701 0.403542
v -0.185521 -0.001480 0.403542
v 0.315383 -0.001480 0.403542
v 0.115021 0.098701 0.403542
v -0.085340 0.098701 0.403542
v -0.185521 0.098701 0.403542
v 0.115022 0.399244 0.403542
v -0.085340 0.399244 0.403542
v 0.115022 0.499425 0.403542
v -0.085340 0.499425 0.403542
v 0.215203 0.699787 0.403542
v 0.215203 0.499425 0.403542
v 0.115022 0.699787 0.403542
v -0.085340 0.699787 0.403542
v -0.185521 0.499425 0.403542
v -0.185521 0.699787 0.403542
v 0.415565 0.900149 0.403542
v 0.315384 0.799968 0.403542
v 0.415565 0.799968 0.403542
v 0.315384 0.900149 0.403542
v -0.385883 1.100511 0.403542
v -0.486064 0.699787 0.403542
v -0.285702 0.699787 0.403542
v -0.486064 1.100511 0.403542
v 0.415565 1.200692 0.403542
v 0.315384 1.100511 0.403542
v 0.415565 1.100511 0.403542
v 0.315384 1.200692 0.403542
v -0.285702 1.300873 0.403542
v -0.385883 1.300873 0.403542
v 0.315384 1.501235 0.403542
v 0.215203 1.401054 0.403542
v 0.315384 1.401054 0.403542
v 0.215203 1.501235 0.403542
v -0.185521 1.501235 0.403542
v -0.285702 1.401054 0.403542
v -0.185521 1.401054 0.403542
v -0.285702 1.501235 0.403542
v 0.115022 2.002140 0.403542
v -0.085340 1.501235 0.403542
v 0.115022 1.501235 0.403542
v -0.085340 2.002140 0.403542
v -0.185521 0.699787 0.303361
v -0.285702 0.599606 0.303361
v -0.185521 0.599606 0.303361
v -0.285702 0.699787 0.303361
v -0.486064 1.000330 0.303361
v -0.586245 0.699787 0.303361
v -0.486064 0.699787 0.303361
v -0.586245 1.000330 0.303361
v -0.385883 1.200692 0.303361
v -0.486064 1.100511 0.303361
v -0.385883 1.100511 0.303361
v -0.486064 1.200692 0.303361
v 0.415565 1.300873 0.303361
v 0.315384 1.200692 0.303361
v 0.415565 1.200692 0.303361
v 0.315384 1.300873 0.303361
v 0.315384 1.801778 0.303361
v 0.115022 1.501235 0.303361
v 0.315384 1.501235 0.303361
v 0.215203 1.801778 0.303361
v 0.315384 1.901959 0.303361
v 0.215203 1.901959 0.303361
v 0.315384 2.002140 0.303361
v 0.215203 2.002140 0.303361
v 0.115022 2.002140 0.303361
v -0.085340 2.002140 0.303361
v -0.185521 1.501235 0.303361
v -0.085340 1.501235 0.303361
v -0.185521 2.002140 0.303361
v 0.215203 2.102321 0.303361
v -0.085340 2.102321 0.303361
v -0.285702 0.699787 0.203180
v -0.385883 0.599606 0.203180
v -0.285702 0.599606 0.203180
v -0.385883 0.699787 0.203180
v 0.415565 0.799968 0.203180
v 0.315383 0.699787 0.203180
v 0.415565 0.699787 0.203180
v 0.315384 0.799968 0.203180
v -0.586245 0.900149 0.203180
v -0.686426 0.699787 0.203180
v -0.586245 0.699787 0.203180
v -0.686426 0.900149 0.203180
v -0.486064 1.100511 0.203180
v -0.586245 1.000330 0.203180
v -0.486064 1.000330 0.203180
v -0.586245 1.100511 0.203180
v -0.385883 1.300873 0.203180
v -0.486064 1.200692 0.203180
v -0.385883 1.200692 0.203180
v -0.486064 1.300873 0.203180
v -0.285702 1.401054 0.203180
v -0.285702 1.300873 0.203180
v -0.385883 1.401054 0.203180
v 0.315384 2.102321 0.203180
v 0.215203 2.002140 0.203180
v 0.315384 2.002140 0.203180
v 0.215203 2.102321 0.203180
v -0.085340 2.102321 0.203180
v -0.185521 2.002140 0.203180
v -0.085340 2.002140 0.203180
v -0.185521 2.102321 0.203180
v 0.115022 2.302683 0.203180
v 0.115022 2.102321 0.203180
v -0.085340 2.302683 0.203180
v -0.385883 0.699787 0.102999
v -0.486064 0.599606 0.102999
v -0.385883 0.599606 0.102999
v -0.486064 0.699787 0.102999
v -0.686426 0.799968 0.102999
v -0.886788 0.699787 0.102999
v -0.686426 0.699787 0.102999
v -0.886788 0.799968 0.102999
v -0.586245 1.000330 0.102999
v -0.686426 0.900149 0.102999
v -0.586245 0.900149 0.102999
v -0.686426 1.000330 0.102999
v 0.415565 1.601416 0.102999
v 0.315384 1.501235 0.102999
v 0.415565 1.501235 0.102999
v 0.515746 1.701597 0.102999
v 0.515746 1.601416 0.102999
v 0.415565 1.701597 0.102999
v 0.315384 1.701597 0.102999
v 0.615927 1.801778 0.102999
v 0.615927 1.701597 0.102999
v 0.315384 1.801778 0.102999
v -0.686426 0.900149 0.002818
v -0.886788 0.799968 0.002818
v -0.686426 0.799968 0.002818
v -0.886788 0.900149 0.002818
v 0.115022 0.699787 -0.097363
v -0.085340 0.499425 -0.097363
v 0.115021 0.499425 -0.097363
v -0.085340 0.699787 -0.097363
v 0.315383 0.098701 -0.197544
v -0.185522 -0.001480 -0.197544
v 0.315383 -0.001480 -0.197544
v 0.115021 0.098701 -0.197544
v -0.085341 0.098701 -0.197544
v -0.185521 0.098701 -0.197544
v 0.115021 0.399244 -0.197544
v -0.085340 0.399244 -0.197544
v 0.115021 0.499425 -0.197544
v -0.085340 0.499425 -0.197544
v -0.185521 0.599606 -0.197544
v -0.185521 0.499425 -0.197544
v 0.215203 0.699787 -0.197544
v 0.215202 0.499425 -0.197544
v 0.115022 0.699787 -0.197544
v -0.085340 0.699787 -0.197544
v -0.185521 0.699787 -0.197544
v 0.014841 0.699787 -0.598268
v -0.085340 0.599606 -0.598268
v 0.014841 0.599606 -0.598268
v -0.085340 0.699787 -0.598268
v 0.014841 0.599606 0.603904
v -0.085340 0.599606 0.603904
v 0.014841 0.699787 0.603904
v -0.085340 0.699787 0.603904
v 0.315383 -0.001480 0.203180
v -0.185521 -0.001480 0.203180
v 0.315383 0.098701 0.203180
v 0.115021 0.098701 0.203180
v -0.085341 0.098701 0.203180
v -0.185521 0.098701 0.203180
v 0.115021 0.399244 0.203180
v -0.085340 0.399244 0.203180
v 0.115022 0.499425 0.203180
v -0.085340 0.499425 0.203180
v -0.185521 0.499425 0.203180
v -0.185521 0.599606 0.203180
v 0.215202 0.499425 0.203180
v 0.215203 0.699787 0.203180
v 0.115022 0.699787 0.203180
v -0.085340 0.699787 0.203180
v -0.185521 0.699787 0.203180
v 0.115022 0.499425 0.102999
v -0.085340 0.499425 0.102999
v 0.115022 0.699787 0.102999
v -0.085340 0.699787 0.102999
v -0.686426 0.799968 -0.097363
v -0.886788 0.799968 -0.097363
v -0.686426 0.900149 -0.097363
v -0.886788 0.900149 -0.097363
v 0.415565 1.501235 -0.097363
v 0.315384 1.501235 -0.097363
v 0.415565 1.601416 -0.097363
v 0.515746 1.601416 -0.097363
v 0.515746 1.701597 -0.097363
v 0.415565 1.701597 -0.097363
v 0.315384 1.701597 -0.097363
v 0.615927 1.701597 -0.097363
v 0.615927 1.801778 -0.097363
v 0.315384 1.801778 -0.097363
v -0.385883 0.599606 -0.197544
v -0.486064 0.599606 -0.197544
v -0.385883 0.699787 -0.197544
v -0.486064 0.699787 -0.197544
v 0.415565 0.699787 -0.197544
v 0.315383 0.699787 -0.197544
v 0.415565 0.799968 -0.197544
v 0.315383 0.799968 -0.197544
v -0.686426 0.699787 -0.197544
v -0.886788 0.699787 -0.197544
v -0.686426 0.799968 -0.197544
v -0.886788 0.799968 -0.197544
v -0.586245 0.900149 -0.197544
v -0.686426 0.900149 -0.197544
v -0.586245 1.000330 -0.197544
v -0.686426 1.000330 -0.197544
v 0.315384 2.002140 -0.197544
v 0.215203 2.002140 -0.197544
v 0.315384 2.102321 -0.197544
v 0.215203 2.102321 -0.197544
v -0.085340 2.002140 -0.197544
v -0.185521 2.002140 -0.197544
v -0.085340 2.102321 -0.197544
v -0.185521 2.102321 -0.197544
v 0.115022 2.102321 -0.197544
v 0.115022 2.302683 -0.197544
v -0.085340 2.302683 -0.197544
v -0.285702 0.599606 -0.297725
v -0.385883 0.599606 -0.297725
v -0.285702 0.699787 -0.297725
v -0.385883 0.699787 -0.297725
v -0.586245 0.699787 -0.297725
v -0.686426 0.699787 -0.297725
v -0.586245 0.900149 -0.297725
v -0.686426 0.900149 -0.297725
v -0.486064 1.000330 -0.297725
v -0.586245 1.000330 -0.297725
v -0.486064 1.100511 -0.297725
v -0.586245 1.100511 -0.297725
v 0.415565 1.200692 -0.297725
v 0.315384 1.200692 -0.297725
v 0.415565 1.300873 -0.297725
v 0.315384 1.300873 -0.297725
v -0.385883 1.200692 -0.297725
v -0.486064 1.200692 -0.297725
v -0.385883 1.300873 -0.297725
v -0.486064 1.300873 -0.297725
v -0.285702 1.300873 -0.297725
v -0.285702 1.401054 -0.297725
v -0.385883 1.401054 -0.297725
v 0.315384 1.501235 -0.297725
v 0.115022 1.501235 -0.297725
v 0.315384 1.801778 -0.297725
v 0.215203 1.801778 -0.297725
v 0.315384 1.901959 -0.297725
v 0.215203 1.901959 -0.297725
v 0.315384 2.002140 -0.297725
v 0.215203 2.002140 -0.297725
v 0.115022 2.002140 -0.297725
v -0.085340 1.501235 -0.297725
v -0.185521 1.501235 -0.297725
v -0.085340 2.002140 -0.297725
v -0.185521 2.002140 -0.297725
v 0.215203 2.102321 -0.297725
v -0.085340 2.102321 -0.297725
v 0.315383 -0.001480 -0.397906
v -0.185522 -0.001480 -0.397906
v 0.315383 0.098701 -0.397906
v 0.115021 0.098701 -0.397906
v -0.085341 0.098701 -0.397906
v -0.185521 0.098701 -0.397906
v 0.115021 0.399244 -0.397906
v -0.085340 0.399244 -0.397906
v 0.115021 0.499425 -0.397906
v -0.085340 0.499425 -0.397906
v -0.185521 0.499425 -0.397906
v -0.185521 0.599606 -0.397906
v 0.215202 0.499425 -0.397906
v 0.215202 0.699787 -0.397906
v 0.115022 0.699787 -0.397906
v -0.085340 0.699787 -0.397906
v -0.285702 0.599606 -0.397906
v -0.285702 0.699787 -0.397906
v 0.415565 0.799968 -0.397906
v 0.315383 0.799968 -0.397906
v 0.415565 0.900149 -0.397906
v 0.315383 0.900149 -0.397906
v -0.586245 0.699787 -0.397906
v -0.486064 1.000330 -0.397906
v -0.586245 1.000330 -0.397906
v 0.415565 1.100511 -0.397906
v 0.315384 1.100511 -0.397906
v 0.415565 1.200692 -0.397906
v 0.315384 1.200692 -0.397906
v -0.385883 1.200692 -0.397906
v -0.486064 1.200692 -0.397906
v -0.285702 1.300873 -0.397906
v -0.385883 1.300873 -0.397906
v 0.315384 1.401054 -0.397906
v 0.215203 1.401054 -0.397906
v 0.315384 1.501235 -0.397906
v 0.215203 1.501235 -0.397906
v -0.185521 1.401054 -0.397906
v -0.285702 1.401054 -0.397906
v -0.185521 1.501235 -0.397906
v -0.285702 1.501235 -0.397906
v 0.115022 1.501235 -0.397906
v -0.085340 1.501235 -0.397906
v 0.115022 2.002140 -0.397906
v -0.085340 2.002140 -0.397906
v 0.115021 0.499425 -0.498087
v -0.085340 0.499425 -0.498087
v 0.115022 0.699787 -0.498087
v -0.085340 0.699787 -0.498087
v 0.315383 0.699787 -0.498087
v 0.215202 0.699787 -0.498087
v 0.315383 0.900149 -0.498087
v 0.415565 0.900149 -0.498087
v 0.415565 1.100511 -0.498087
v 0.315384 1.100511 -0.498087
v 0.315384 1.401054 -0.498087
v 0.215203 1.401054 -0.498087
v -0.185521 0.699787 -0.498087
v -0.285702 0.699787 -0.498087
v -0.185521 1.401054 -0.498087
v -0.285702 1.401054 -0.498087
v 0.115022 1.401054 -0.498087
v 0.215203 1.501235 -0.498087
v 0.115022 1.501235 -0.498087
v -0.085340 1.401054 -0.498087
v -0.085340 1.501235 -0.498087
v -0.185521 1.501235 -0.498087
v 0.215202 0.699787 -0.598268
v 0.115022 0.699787 -0.598268
v 0.215203 0.900149 -0.598268
v 0.115022 0.900149 -0.598268
v 0.215203 1.300873 -0.598268
v 0.115022 1.300873 -0.598268
v 0.215203 1.401054 -0.598268
v 0.115022 1.401054 -0.598268
v -0.085340 0.699787 -0.598268
v -0.185521 0.699787 -0.598268
v -0.085340 1.401054 -0.598268
v -0.185521 1.401054 -0.598268
v 0.115022 1.501235 -0.598268
v -0.085340 1.501235 -0.598268
v 0.014841 0.599606 -0.698449
v -0.085340 0.599606 -0.698449
v 0.014841 0.699787 -0.698449
v 0.115022 0.699787 -0.698449
v 0.115022 0.900149 -0.698449
v 0.215203 0.900149 -0.698449
v 0.215203 1.300873 -0.698449
v 0.115022 1.300873 -0.698449
v 0.115022 1.401054 -0.698449
v -0.085340 1.401054 -0.698449
v 0.615927 1.701597 -0.097363
v 0.615927 1.801778 0.102999
v 0.615927 1.701597 0.102999
v 0.615927 1.801778 -0.097363
v 0.515746 1.601416 -0.097363
v 0.515746 1.701597 0.102999
v 0.515746 1.601416 0.102999
v 0.515746 1.701597 -0.097363
v 0.415565 0.900149 0.403542
v 0.415565 1.100511 0.503723
v 0.415565 0.900149 0.503723
v 0.415565 1.100511 0.403542
v 0.415565 1.200692 0.303361
v 0.415565 0.799968 0.403542
v 0.415565 1.200692 0.403542
v 0.415565 0.799968 0.203180
v 0.415565 1.300873 0.303361
v 0.415565 1.501235 -0.097363
v 0.415565 1.601416 0.102999
v 0.415565 1.501235 0.102999
v 0.415565 1.601416 -0.097363
v 0.415565 0.699787 -0.197544
v 0.415565 0.699787 0.203180
v 0.415565 0.799968 -0.197544
v 0.415565 1.200692 -0.297725
v 0.415565 1.300873 -0.297725
v 0.415565 0.799968 -0.397906
v 0.415565 0.900149 -0.397906
v 0.415565 1.100511 -0.397906
v 0.415565 1.200692 -0.397906
v 0.415565 0.900149 -0.498087
v 0.415565 1.100511 -0.498087
v 0.315384 0.799968 0.403542
v 0.315384 0.900149 0.503723
v 0.315384 0.699787 0.503723
v 0.315384 0.900149 0.403542
v 0.315384 1.100511 0.403542
v 0.315384 1.401054 0.503723
v 0.315384 1.100511 0.503723
v 0.315384 1.200692 0.403542
v 0.315384 1.401054 0.403542
v 0.315384 1.200692 0.303361
v 0.315384 1.501235 0.403542
v 0.315384 1.300873 0.303361
v 0.315384 1.501235 0.303361
v 0.315383 -0.001480 0.203180
v 0.315383 0.098701 0.403542
v 0.315383 -0.001480 0.403542
v 0.315383 0.098701 0.203180
v 0.315383 0.699787 0.203180
v 0.315384 0.799968 0.203180
v 0.315384 1.801778 0.203180
v 0.315384 1.901959 0.303361
v 0.315384 1.801778 0.303361
v 0.315384 1.901959 0.203180
v 0.315384 2.002140 0.303361
v 0.315384 2.002140 0.203180
v 0.315384 1.501235 0.102999
v 0.315384 2.102321 0.203180
v 0.315384 1.701597 0.102999
v 0.315384 1.801778 0.102999
v 0.315384 1.501235 -0.097363
v 0.315384 1.801778 -0.097363
v 0.315384 1.801778 -0.197544
v 0.315384 1.701597 -0.097363
v 0.315384 1.901959 -0.197544
v 0.315384 2.002140 -0.197544
v 0.315384 2.102321 -0.197544
v 0.315384 1.300873 -0.297725
v 0.315384 1.501235 -0.297725
v 0.315384 1.801778 -0.297725
v 0.315384 1.901959 -0.297725
v 0.315384 2.002140 -0.297725
v 0.315383 -0.001480 -0.397906
v 0.315383 0.098701 -0.197544
v 0.315383 -0.001480 -0.197544
v 0.315383 0.098701 -0.397906
v 0.315383 0.799968 -0.397906
v 0.315383 0.799968 -0.197544
v 0.315383 0.699787 -0.197544
v 0.315384 1.200692 -0.397906
v 0.315384 1.200692 -0.297725
v 0.315384 1.401054 -0.397906
v 0.315384 1.501235 -0.397906
v 0.315383 0.699787 -0.498087
v 0.315383 0.900149 -0.397906
v 0.315383 0.900149 -0.498087
v 0.315384 1.100511 -0.498087
v 0.315384 1.100511 -0.397906
v 0.315384 1.401054 -0.498087
v 0.215203 0.900149 0.603904
v 0.215203 1.300873 0.704085
v 0.215203 0.900149 0.704085
v 0.215203 1.300873 0.603904
v 0.215203 0.699787 0.503723
v 0.215203 0.699787 0.603904
v 0.215203 1.401054 0.603904
v 0.215203 1.401054 0.503723
v 0.215203 1.401054 0.403542
v 0.215203 1.501235 0.503723
v 0.215203 1.501235 0.403542
v 0.215202 0.499425 0.203180
v 0.215203 0.699787 0.403542
v 0.215203 0.499425 0.403542
v 0.215203 0.699787 0.203180
v 0.215203 2.002140 0.203180
v 0.215203 2.102321 0.303361
v 0.215203 2.002140 0.303361
v 0.215203 2.102321 0.203180
v 0.215203 2.002140 -0.297725
v 0.215203 2.102321 -0.197544
v 0.215203 2.002140 -0.197544
v 0.215203 2.102321 -0.297725
v 0.215202 0.499425 -0.397906
v 0.215203 0.699787 -0.197544
v 0.215202 0.499425 -0.197544
v 0.215202 0.699787 -0.397906
v 0.215203 1.401054 -0.498087
v 0.215203 1.501235 -0.397906
v 0.215203 1.401054 -0.397906
v 0.215203 1.501235 -0.498087
v 0.215202 0.699787 -0.598268
v 0.215202 0.699787 -0.498087
v 0.215203 0.900149 -0.598268
v 0.215203 1.300873 -0.598268
v 0.215203 1.401054 -0.598268
v 0.215203 0.900149 -0.698449
v 0.215203 1.300873 -0.698449
v 0.115022 0.699787 0.603904
v 0.115022 0.900149 0.704085
v 0.115022 0.699787 0.704085
v 0.115022 0.900149 0.603904
v 0.115022 1.300873 0.603904
v 0.115022 1.401054 0.704085
v 0.115022 1.300873 0.704085
v 0.115022 1.401054 0.603904
v 0.115022 1.401054 0.503723
v 0.115022 1.501235 0.603904
v 0.115022 1.501235 0.503723
v 0.115022 0.499425 0.403542
v 0.115022 0.699787 0.503723
v 0.115022 0.499425 0.503723
v 0.115022 0.699787 0.403542
v 0.115022 1.501235 0.303361
v 0.115022 2.002140 0.403542
v 0.115022 1.501235 0.403542
v 0.115022 2.002140 0.303361
v 0.115021 0.098701 0.203180
v 0.115022 0.399244 0.403542
v 0.115021 0.098701 0.403542
v 0.115021 0.399244 0.203180
v 0.115022 0.499425 0.203180
v 0.115022 0.499425 0.102999
v 0.115022 0.699787 0.203180
v 0.115022 0.699787 0.102999
v 0.115021 0.499425 -0.197544
v 0.115022 0.699787 -0.097363
v 0.115021 0.499425 -0.097363
v 0.115022 0.699787 -0.197544
v 0.115022 2.102321 -0.197544
v 0.115022 2.302683 0.203180
v 0.115022 2.102321 0.203180
v 0.115022 2.302683 -0.197544
v 0.115021 0.098701 -0.397906
v 0.115021 0.399244 -0.197544
v 0.115021 0.098701 -0.197544
v 0.115021 0.399244 -0.397906
v 0.115021 0.499425 -0.397906
v 0.115022 1.501235 -0.397906
v 0.115022 2.002140 -0.297725
v 0.115022 1.501235 -0.297725
v 0.115022 2.002140 -0.397906
v 0.115021 0.499425 -0.498087
v 0.115022 0.699787 -0.397906
v 0.115022 0.699787 -0.498087
v 0.115022 1.401054 -0.598268
v 0.115022 1.501235 -0.498087
v 0.115022 1.401054 -0.498087
v 0.115022 1.501235 -0.598268
v 0.115022 0.699787 -0.698449
v 0.115022 0.900149 -0.598268
v 0.115022 0.699787 -0.598268
v 0.115022 0.900149 -0.698449
v 0.115022 1.300873 -0.698449
v 0.115022 1.300873 -0.598268
v 0.115022 1.401054 -0.698449
v 0.014841 0.599606 0.603904
v 0.014841 0.699787 0.704085
v 0.014841 0.599606 0.704085
v 0.014841 0.699787 0.603904
v 0.014841 0.599606 -0.698449
v 0.014841 0.699787 -0.598268
v 0.014841 0.599606 -0.598268
v 0.014841 0.699787 -0.698449
v -0.185521 0.599606 -0.197544
v -0.185521 0.699787 0.203180
v -0.185521 0.599606 0.203180
v -0.185521 0.699787 -0.197544
v -0.085340 0.599606 0.704085
v -0.085340 1.401054 0.704085
v -0.085340 0.599606 0.603904
v -0.085340 0.699787 0.603904
v -0.085340 1.401054 0.603904
v -0.085340 1.501235 0.603904
v -0.085340 1.401054 0.503723
v -0.085340 1.501235 0.503723
v -0.085340 0.499425 0.503723
v -0.085340 0.699787 0.503723
v -0.085340 0.499425 0.403542
v -0.085340 0.699787 0.403542
v -0.085340 1.501235 0.403542
v -0.085340 2.002140 0.403542
v -0.085340 1.501235 0.303361
v -0.085340 2.002140 0.303361
v -0.085340 0.098701 0.403542
v -0.085340 0.399244 0.403542
v -0.085341 0.098701 0.203180
v -0.085340 0.399244 0.203180
v -0.085340 0.499425 0.203180
v -0.085340 2.102321 0.303361
v -0.085340 2.002140 0.203180
v -0.085340 2.102321 0.203180
v -0.085340 0.699787 0.203180
v -0.085340 0.499425 0.102999
v -0.085340 0.699787 0.102999
v -0.085340 0.499425 -0.097363
v -0.085340 0.699787 -0.097363
v -0.085340 0.499425 -0.197544
v -0.085340 0.699787 -0.197544
v -0.085340 2.302683 0.203180
v -0.085340 2.102321 -0.197544
v -0.085340 2.302683 -0.197544
v -0.085340 2.002140 -0.197544
v -0.085340 2.002140 -0.297725
v -0.085340 2.102321 -0.297725
v -0.085341 0.098701 -0.197544
v -0.085340 0.399244 -0.197544
v -0.085341 0.098701 -0.397906
v -0.085340 0.399244 -0.397906
v -0.085340 0.499425 -0.397906
v -0.085340 1.501235 -0.297725
v -0.085340 1.501235 -0.397906
v -0.085340 2.002140 -0.397906
v -0.085340 0.699787 -0.397906
v -0.085340 0.499425 -0.498087
v -0.085340 0.699787 -0.498087
v -0.085340 1.401054 -0.498087
v -0.085340 1.501235 -0.498087
v -0.085340 1.401054 -0.598268
v -0.085340 1.501235 -0.598268
v -0.085340 0.599606 -0.598268
v -0.085340 0.699787 -0.598268
v -0.085340 0.599606 -0.698449
v -0.085340 1.401054 -0.698449
v -0.185521 0.699787 0.603904
v -0.185521 1.401054 0.603904
v -0.185521 0.699787 0.503723
v -0.185521 1.401054 0.503723
v -0.185521 1.501235 0.503723
v -0.185521 1.401054 0.403542
v -0.185521 1.501235 0.403542
v -0.185521 0.499425 0.403542
v -0.185521 0.699787 0.403542
v -0.185521 0.599606 0.303361
v -0.185521 0.699787 0.303361
v -0.185521 -0.001480 0.403542
v -0.185521 0.098701 0.403542
v -0.185521 -0.001480 0.203180
v -0.185521 0.098701 0.203180
v -0.185521 0.499425 0.203180
v -0.185521 0.599606 0.203180
v -0.185521 1.501235 0.303361
v -0.185521 2.002140 0.303361
v -0.185521 2.002140 0.203180
v -0.185521 2.102321 0.203180
v -0.185521 2.002140 -0.197544
v -0.185521 2.102321 -0.197544
v -0.185521 1.501235 -0.297725
v -0.185521 2.002140 -0.297725
v -0.185522 -0.001480 -0.197544
v -0.185521 0.098701 -0.197544
v -0.185522 -0.001480 -0.397906
v -0.185521 0.098701 -0.397906
v -0.185521 0.499425 -0.197544
v -0.185521 0.599606 -0.197544
v -0.185521 0.499425 -0.397906
v -0.185521 0.599606 -0.397906
v -0.185521 1.401054 -0.397906
v -0.185521 1.501235 -0.397906
v -0.185521 1.401054 -0.498087
v -0.185521 1.501235 -0.498087
v -0.185521 0.699787 -0.498087
v -0.185521 0.699787 -0.598268
v -0.185521 1.401054 -0.598268
v -0.285702 0.699787 0.503723
v -0.285702 1.401054 0.503723
v -0.285702 0.699787 0.403542
v -0.285702 1.300873 0.403542
v -0.285702 1.401054 0.403542
v -0.285702 0.599606 0.303361
v -0.285702 0.699787 0.303361
v -0.285702 0.599606 0.203180
v -0.285702 0.699787 0.203180
v -0.285702 1.501235 0.403542
v -0.285702 1.300873 0.203180
v -0.285702 1.401054 0.203180
v -0.285702 1.401054 -0.297725
v -0.285702 0.599606 -0.297725
v -0.285702 0.699787 -0.297725
v -0.285702 0.599606 -0.397906
v -0.285702 0.699787 -0.397906
v -0.285702 1.300873 -0.297725
v -0.285702 1.300873 -0.397906
v -0.285702 1.401054 -0.397906
v -0.285702 1.501235 -0.397906
v -0.285702 0.699787 -0.498087
v -0.285702 1.401054 -0.498087
v -0.385883 1.100511 0.403542
v -0.385883 1.300873 0.403542
v -0.385883 1.100511 0.303361
v -0.385883 1.200692 0.303361
v -0.385883 1.200692 0.203180
v -0.385883 1.300873 0.203180
v -0.385883 0.599606 0.203180
v -0.385883 0.699787 0.203180
v -0.385883 0.599606 0.102999
v -0.385883 0.699787 0.102999
v -0.385883 0.599606 -0.197544
v -0.385883 0.699787 -0.197544
v -0.385883 0.599606 -0.297725
v -0.385883 0.699787 -0.297725
v -0.385883 1.401054 0.203180
v -0.385883 1.300873 -0.297725
v -0.385883 1.401054 -0.297725
v -0.385883 1.200692 -0.297725
v -0.385883 1.200692 -0.397906
v -0.385883 1.300873 -0.397906
v -0.486064 0.699787 0.403542
v -0.486064 1.100511 0.403542
v -0.486064 0.699787 0.303361
v -0.486064 1.000330 0.303361
v -0.486064 1.100511 0.303361
v -0.486064 1.200692 0.303361
v -0.486064 1.000330 0.203180
v -0.486064 1.100511 0.203180
v -0.486064 1.200692 0.203180
v -0.486064 0.599606 0.102999
v -0.486064 0.699787 0.102999
v -0.486064 0.599606 -0.197544
v -0.486064 0.699787 -0.197544
v -0.486064 1.300873 0.203180
v -0.486064 1.100511 -0.297725
v -0.486064 1.200692 -0.297725
v -0.486064 1.300873 -0.297725
v -0.486064 1.000330 -0.297725
v -0.486064 1.000330 -0.397906
v -0.486064 1.200692 -0.397906
v -0.586245 0.699787 0.303361
v -0.586245 1.000330 0.303361
v -0.586245 0.699787 0.203180
v -0.586245 0.900149 0.203180
v -0.586245 1.000330 0.203180
v -0.586245 1.100511 0.203180
v -0.586245 0.900149 0.102999
v -0.586245 1.000330 0.102999
v -0.586245 1.000330 -0.197544
v -0.586245 0.900149 -0.197544
v -0.586245 0.900149 -0.297725
v -0.586245 1.000330 -0.297725
v -0.586245 1.100511 -0.297725
v -0.586245 0.699787 -0.297725
v -0.586245 0.699787 -0.397906
v -0.586245 1.000330 -0.397906
v -0.686426 0.699787 0.203180
v -0.686426 0.900149 0.203180
v -0.686426 0.699787 0.102999
v -0.686426 0.799968 0.102999
v -0.686426 0.900149 0.102999
v -0.686426 1.000330 0.102999
v -0.686426 0.799968 0.002818
v -0.686426 0.900149 0.002818
v -0.686426 0.900149 -0.097363
v -0.686426 0.799968 -0.097363
v -0.686426 0.799968 -0.197544
v -0.686426 0.900149 -0.197544
v -0.686426 1.000330 -0.197544
v -0.686426 0.699787 -0.197544
v -0.686426 0.699787 -0.297725
v -0.686426 0.900149 -0.297725
v -0.886788 0.699787 0.102999
v -0.886788 0.799968 0.102999
v -0.886788 0.799968 0.002818
v -0.886788 0.799968 -0.097363
v -0.886788 0.900149 0.002818
v -0.886788 0.900149 -0.097363
v -0.886788 0.699787 -0.197544
v -0.886788 0.799968 -0.197544
v -0.185521 -0.001480 0.403542
v 0.315383 -0.001480 0.203180
v 0.315383 -0.001480 0.403542
v -0.185521 -0.001480 0.203180
v -0.185522 -0.001480 -0.197544
v 0.315383 -0.001480 -0.397906
v 0.315383 -0.001480 -0.197544
v -0.185522 -0.001480 -0.397906
v 0.115022 0.499425 0.403542
v 0.215202 0.499425 0.203180
v 0.215203 0.499425 0.403542
v 0.115022 0.499425 0.203180
v 0.115021 0.499425 -0.197544
v 0.215202 0.499425 -0.397906
v 0.215202 0.499425 -0.197544
v 0.115021 0.499425 -0.397906
v -0.085340 0.499425 0.503723
v 0.115022 0.499425 0.503723
v -0.085340 0.499425 0.403542
v -0.085340 0.499425 0.203180
v 0.115022 0.499425 0.102999
v -0.085340 0.499425 0.102999
v -0.085340 0.499425 -0.097363
v 0.115021 0.499425 -0.097363
v -0.085340 0.499425 -0.197544
v -0.085340 0.499425 -0.397906
v 0.115021 0.499425 -0.498087
v -0.085340 0.499425 -0.498087
v -0.185521 0.499425 0.403542
v -0.185521 0.499425 0.203180
v -0.185521 0.499425 -0.197544
v -0.185521 0.499425 -0.397906
v -0.085340 0.599606 0.704085
v 0.014841 0.599606 0.603904
v 0.014841 0.599606 0.704085
v -0.085340 0.599606 0.603904
v -0.085340 0.599606 -0.598268
v 0.014841 0.599606 -0.698449
v 0.014841 0.599606 -0.598268
v -0.085340 0.599606 -0.698449
v -0.285702 0.599606 0.303361
v -0.185521 0.599606 0.203180
v -0.185521 0.599606 0.303361
v -0.185521 0.599606 -0.397906
v -0.185521 0.599606 -0.197544
v -0.285702 0.599606 0.203180
v -0.285702 0.599606 -0.297725
v -0.285702 0.599606 -0.397906
v -0.385883 0.599606 0.203180
v -0.385883 0.599606 0.102999
v -0.385883 0.599606 -0.197544
v -0.385883 0.599606 -0.297725
v -0.486064 0.599606 0.102999
v -0.486064 0.599606 -0.197544
v 0.315383 0.699787 0.203180
v 0.415565 0.699787 -0.197544
v 0.415565 0.699787 0.203180
v 0.315383 0.699787 -0.197544
v 0.215203 0.699787 0.503723
v 0.315384 0.699787 0.503723
v 0.315383 0.699787 -0.498087
v 0.215203 0.699787 0.403542
v 0.215203 0.699787 0.203180
v 0.215203 0.699787 -0.197544
v 0.215202 0.699787 -0.397906
v 0.215202 0.699787 -0.498087
v 0.115022 0.699787 0.603904
v 0.215203 0.699787 0.603904
v 0.115022 0.699787 0.503723
v 0.115022 0.699787 0.403542
v 0.115022 0.699787 0.203180
v 0.115022 0.699787 0.102999
v 0.115022 0.699787 -0.097363
v 0.115022 0.699787 -0.197544
v 0.115022 0.699787 -0.397906
v 0.215202 0.699787 -0.598268
v 0.115022 0.699787 -0.498087
v 0.115022 0.699787 -0.598268
v 0.014841 0.699787 0.704085
v 0.115022 0.699787 0.704085
v 0.014841 0.699787 0.603904
v 0.014841 0.699787 -0.598268
v 0.115022 0.699787 -0.698449
v 0.014841 0.699787 -0.698449
v -0.085340 0.699787 0.603904
v -0.085340 0.699787 0.503723
v -0.085340 0.699787 0.102999
v -0.085340 0.699787 -0.097363
v -0.085340 0.699787 -0.498087
v -0.085340 0.699787 -0.598268
v -0.185521 0.699787 0.603904
v -0.085340 0.699787 0.403542
v -0.185521 0.699787 0.503723
v -0.185521 0.699787 0.403542
v -0.185521 0.699787 0.203180
v -0.085340 0.699787 -0.197544
v -0.085340 0.699787 0.203180
v -0.185521 0.699787 -0.197544
v -0.185521 0.699787 -0.498087
v -0.085340 0.699787 -0.397906
v -0.185521 0.699787 -0.598268
v -0.285702 0.699787 0.503723
v -0.185521 0.699787 0.303361
v -0.285702 0.699787 0.403542
v -0.285702 0.699787 0.303361
v -0.285702 0.699787 -0.397906
v -0.285702 0.699787 -0.498087
v -0.385883 0.699787 0.203180
v -0.285702 0.699787 0.203180
v -0.385883 0.699787 -0.297725
v -0.285702 0.699787 -0.297725
v -0.486064 0.699787 0.403542
v -0.385883 0.699787 0.102999
v -0.486064 0.699787 0.303361
v -0.486064 0.699787 0.102999
v -0.486064 0.699787 -0.197544
v -0.385883 0.699787 -0.197544
v -0.586245 0.699787 0.303361
v -0.586245 0.699787 0.203180
v -0.586245 0.699787 -0.297725
v -0.586245 0.699787 -0.397906
v -0.686426 0.699787 0.203180
v -0.686426 0.699787 0.102999
v -0.686426 0.699787 -0.197544
v -0.686426 0.699787 -0.297725
v -0.886788 0.699787 0.102999
v -0.886788 0.699787 -0.197544
v 0.315384 0.799968 0.403542
v 0.415565 0.799968 0.203180
v 0.415565 0.799968 0.403542
v 0.315384 0.799968 0.203180
v 0.315383 0.799968 -0.197544
v 0.415565 0.799968 -0.397906
v 0.415565 0.799968 -0.197544
v 0.315383 0.799968 -0.397906
v 0.315384 0.900149 0.503723
v 0.415565 0.900149 0.403542
v 0.415565 0.900149 0.503723
v 0.315384 0.900149 0.403542
v 0.315383 0.900149 -0.397906
v 0.415565 0.900149 -0.498087
v 0.415565 0.900149 -0.397906
v 0.315383 0.900149 -0.498087
v 0.115022 0.900149 0.704085
v 0.215203 0.900149 0.603904
v 0.215203 0.900149 0.704085
v 0.115022 0.900149 0.603904
v 0.115022 0.900149 -0.598268
v 0.215203 0.900149 -0.698449
v 0.215203 0.900149 -0.598268
v 0.115022 0.900149 -0.698449
v 0.315384 1.501235 0.102999
v 0.415565 1.501235 -0.097363
v 0.415565 1.501235 0.102999
v 0.315384 1.501235 -0.097363
v 0.415565 1.601416 0.102999
v 0.515746 1.601416 -0.097363
v 0.515746 1.601416 0.102999
v 0.415565 1.601416 -0.097363
v 0.515746 1.701597 0.102999
v 0.615927 1.701597 -0.097363
v 0.615927 1.701597 0.102999
v 0.515746 1.701597 -0.097363
v 0.315383 0.098701 0.403542
v 0.315383 0.098701 0.203180
v 0.115021 0.098701 0.403542
v 0.115021 0.098701 0.203180
v 0.315383 0.098701 -0.197544
v 0.315383 0.098701 -0.397906
v 0.115021 0.098701 -0.197544
v 0.115021 0.098701 -0.397906
v -0.085340 0.098701 0.403542
v -0.085341 0.098701 0.203180
v -0.185521 0.098701 0.403542
v -0.185521 0.098701 0.203180
v -0.085341 0.098701 -0.197544
v -0.085341 0.098701 -0.397906
v -0.185521 0.098701 -0.197544
v -0.185521 0.098701 -0.397906
v -0.686426 0.799968 0.102999
v -0.686426 0.799968 0.002818
v -0.886788 0.799968 0.102999
v -0.886788 0.799968 0.002818
v -0.686426 0.799968 -0.097363
v -0.686426 0.799968 -0.197544
v -0.886788 0.799968 -0.097363
v -0.886788 0.799968 -0.197544
v -0.586245 0.900149 0.203180
v -0.586245 0.900149 0.102999
v -0.686426 0.900149 0.203180
v -0.686426 0.900149 0.102999
v -0.586245 0.900149 -0.197544
v -0.586245 0.900149 -0.297725
v -0.686426 0.900149 -0.197544
v -0.686426 0.900149 -0.297725
v -0.686426 0.900149 0.002818
v -0.686426 0.900149 -0.097363
v -0.886788 0.900149 0.002818
v -0.886788 0.900149 -0.097363
v -0.486064 1.000330 0.303361
v -0.486064 1.000330 0.203180
v -0.586245 1.000330 0.303361
v -0.586245 1.000330 0.203180
v -0.486064 1.000330 -0.297725
v -0.486064 1.000330 -0.397906
v -0.586245 1.000330 -0.297725
v -0.586245 1.000330 -0.397906
v -0.586245 1.000330 0.102999
v -0.586245 1.000330 -0.197544
v -0.686426 1.000330 0.102999
v -0.686426 1.000330 -0.197544
v 0.415565 1.100511 0.503723
v 0.415565 1.100511 0.403542
v 0.315384 1.100511 0.503723
v 0.315384 1.100511 0.403542
v 0.415565 1.100511 -0.397906
v 0.415565 1.100511 -0.498087
v 0.315384 1.100511 -0.397906
v 0.315384 1.100511 -0.498087
v -0.385883 1.100511 0.403542
v -0.385883 1.100511 0.303361
v -0.486064 1.100511 0.403542
v -0.486064 1.100511 0.303361
v -0.486064 1.100511 0.203180
v -0.486064 1.100511 -0.297725
v -0.586245 1.100511 0.203180
v -0.586245 1.100511 -0.297725
v 0.415565 1.200692 0.403542
v 0.415565 1.200692 0.303361
v 0.315384 1.200692 0.403542
v 0.315384 1.200692 0.303361
v 0.415565 1.200692 -0.297725
v 0.415565 1.200692 -0.397906
v 0.315384 1.200692 -0.297725
v 0.315384 1.200692 -0.397906
v -0.385883 1.200692 0.303361
v -0.385883 1.200692 0.203180
v -0.486064 1.200692 0.303361
v -0.486064 1.200692 0.203180
v -0.385883 1.200692 -0.297725
v -0.385883 1.200692 -0.397906
v -0.486064 1.200692 -0.297725
v -0.486064 1.200692 -0.397906
v 0.415565 1.300873 0.303361
v 0.415565 1.300873 -0.297725
v 0.315384 1.300873 0.303361
v 0.315384 1.300873 -0.297725
v 0.215203 1.300873 0.704085
v 0.215203 1.300873 0.603904
v 0.115022 1.300873 0.704085
v 0.115022 1.300873 0.603904
v 0.215203 1.300873 -0.598268
v 0.215203 1.300873 -0.698449
v 0.115022 1.300873 -0.598268
v 0.115022 1.300873 -0.698449
v -0.285702 1.300873 0.403542
v -0.285702 1.300873 0.203180
v -0.385883 1.300873 0.403542
v -0.385883 1.300873 0.203180
v -0.285702 1.300873 -0.297725
v -0.285702 1.300873 -0.397906
v -0.385883 1.300873 -0.297725
v -0.385883 1.300873 -0.397906
v -0.486064 1.300873 0.203180
v -0.486064 1.300873 -0.297725
v 0.315384 1.401054 0.503723
v 0.315384 1.401054 0.403542
v 0.215203 1.401054 0.503723
v 0.215203 1.401054 0.403542
v 0.315384 1.401054 -0.397906
v 0.315384 1.401054 -0.498087
v 0.215203 1.401054 -0.397906
v 0.215203 1.401054 -0.498087
v 0.215203 1.401054 0.603904
v 0.115022 1.401054 0.603904
v 0.115022 1.401054 0.503723
v 0.215203 1.401054 -0.598268
v 0.115022 1.401054 -0.498087
v 0.115022 1.401054 -0.598268
v 0.115022 1.401054 0.704085
v -0.085340 1.401054 0.704085
v -0.085340 1.401054 0.603904
v 0.115022 1.401054 -0.698449
v -0.085340 1.401054 -0.598268
v -0.085340 1.401054 -0.698449
v -0.085340 1.401054 0.503723
v -0.185521 1.401054 0.603904
v -0.185521 1.401054 0.503723
v -0.085340 1.401054 -0.498087
v -0.185521 1.401054 -0.498087
v -0.185521 1.401054 -0.598268
v -0.185521 1.401054 0.403542
v -0.285702 1.401054 0.503723
v -0.285702 1.401054 0.403542
v -0.185521 1.401054 -0.397906
v -0.285702 1.401054 -0.397906
v -0.285702 1.401054 -0.498087
v -0.285702 1.401054 0.203180
v -0.285702 1.401054 -0.297725
v -0.385883 1.401054 0.203180
v -0.385883 1.401054 -0.297725
v 0.315384 1.501235 0.403542
v 0.315384 1.501235 0.303361
v 0.215203 1.501235 0.403542
v 0.315384 1.501235 -0.297725
v 0.315384 1.501235 -0.397906
v 0.215203 1.501235 -0.397906
v 0.215203 1.501235 0.503723
v 0.115022 1.501235 0.503723
v 0.115022 1.501235 0.403542
v 0.115022 1.501235 0.303361
v 0.215203 1.501235 -0.498087
v 0.115022 1.501235 -0.297725
v 0.115022 1.501235 -0.397906
v 0.115022 1.501235 -0.498087
v 0.115022 1.501235 0.603904
v -0.085340 1.501235 0.603904
v -0.085340 1.501235 0.503723
v -0.085340 1.501235 0.403542
v 0.115022 1.501235 -0.598268
v -0.085340 1.501235 -0.397906
v -0.085340 1.501235 -0.498087
v -0.085340 1.501235 -0.598268
v -0.085340 1.501235 0.303361
v -0.185521 1.501235 0.503723
v -0.185521 1.501235 0.403542
v -0.185521 1.501235 0.303361
v -0.185521 1.501235 -0.297725
v -0.085340 1.501235 -0.297725
v -0.185521 1.501235 -0.397906
v -0.185521 1.501235 -0.498087
v -0.285702 1.501235 0.403542
v -0.285702 1.501235 -0.397906
v 0.615927 1.801778 0.102999
v 0.615927 1.801778 -0.097363
v 0.315384 1.801778 0.102999
v 0.315384 1.801778 -0.097363
v 0.315384 2.002140 0.303361
v 0.315384 2.002140 0.203180
v 0.215203 2.002140 0.303361
v 0.215203 2.002140 0.203180
v 0.315384 2.002140 -0.197544
v 0.315384 2.002140 -0.297725
v 0.215203 2.002140 -0.197544
v 0.215203 2.002140 -0.297725
v 0.115022 2.002140 0.403542
v 0.115022 2.002140 0.303361
v -0.085340 2.002140 0.403542
v -0.085340 2.002140 0.303361
v 0.115022 2.002140 -0.297725
v 0.115022 2.002140 -0.397906
v -0.085340 2.002140 -0.297725
v -0.085340 2.002140 -0.397906
v -0.085340 2.002140 0.203180
v -0.185521 2.002140 0.303361
v -0.185521 2.002140 0.203180
v -0.085340 2.002140 -0.197544
v -0.185521 2.002140 -0.197544
v -0.185521 2.002140 -0.297725
v 0.315384 2.102321 0.203180
v 0.315384 2.102321 -0.197544
v 0.215203 2.102321 0.203180
v 0.215203 2.102321 -0.197544
v 0.215203 2.102321 0.303361
v 0.115022 2.102321 0.203180
v 0.215203 2.102321 -0.297725
v 0.115022 2.102321 -0.197544
v -0.085340 2.102321 0.303361
v -0.085340 2.102321 0.203180
v -0.085340 2.102321 -0.197544
v -0.085340 2.102321 -0.297725
v -0.185521 2.102321 0.203180
v -0.185521 2.102321 -0.197544
v 0.115022 2.302683 0.203180
v 0.115022 2.302683 -0.197544
v -0.085340 2.302683 0.203180
v -0.085340 2.302683 -0.197544
vt 0.654349 0.149846
vt 0.674910 0.170375
vt 0.654349 0.170375
vt 0.633788 0.108789
vt 0.633788 0.149846
vt 0.613226 0.026676
vt 0.613226 0.108789
vt 0.633788 0.026676
vt 0.633788 0.006147
vt 0.674910 0.006147
vt 0.228154 0.868926
vt 0.248715 0.909982
vt 0.228154 0.909982
vt 0.248715 0.868926
vt 0.617294 0.952796
vt 0.637855 0.973324
vt 0.617294 0.973324
vt 0.637855 0.952796
vt 0.794100 0.530044
vt 0.773539 0.386345
vt 0.794100 0.386345
vt 0.773538 0.530044
vt 0.946165 0.059499
vt 0.925604 0.100556
vt 0.925604 0.059499
vt 0.946165 0.100556
vt 0.280176 0.806644
vt 0.321299 0.847700
vt 0.280176 0.847700
vt 0.321299 0.806644
vt 0.740663 0.644981
vt 0.761224 0.686038
vt 0.740663 0.686038
vt 0.720101 0.603924
vt 0.720101 0.644981
vt 0.740663 0.603924
vt 0.740663 0.542339
vt 0.761224 0.542339
vt 0.794100 0.006147
vt 0.814661 0.149846
vt 0.794100 0.149846
vt 0.814661 0.006147
vt 0.808901 0.338663
vt 0.829463 0.359191
vt 0.808901 0.359191
vt 0.829463 0.338663
vt 0.648589 0.379720
vt 0.669151 0.400248
vt 0.648589 0.400248
vt 0.669151 0.379720
vt 0.613226 0.644981
vt 0.572103 0.624453
vt 0.613226 0.624453
vt 0.572103 0.644981
vt 0.892728 0.427402
vt 0.872166 0.386345
vt 0.892728 0.386345
vt 0.872166 0.427402
vt 0.794100 0.887149
vt 0.773539 0.846092
vt 0.794100 0.846092
vt 0.773539 0.887149
vt 0.940405 0.289373
vt 0.960967 0.309901
vt 0.940405 0.309901
vt 0.960967 0.289373
vt 0.162402 0.667814
vt 0.182963 0.749928
vt 0.141840 0.749928
vt 0.182963 0.667814
vt 0.937918 0.607985
vt 0.958480 0.628514
vt 0.937918 0.628514
vt 0.958480 0.607985
vt 0.141840 0.626757
vt 0.162402 0.626757
vt 0.880413 0.973324
vt 0.900975 0.993852
vt 0.880413 0.993852
vt 0.900975 0.973324
vt 0.940405 0.223726
vt 0.960967 0.244255
vt 0.940405 0.244255
vt 0.960967 0.223726
vt 0.551542 0.657276
vt 0.592665 0.759918
vt 0.551542 0.759918
vt 0.592665 0.657276
vt 0.039033 0.963334
vt 0.059595 0.942805
vt 0.059595 0.963334
vt 0.039033 0.942805
vt 0.637855 0.833798
vt 0.617294 0.772213
vt 0.637855 0.772213
vt 0.617294 0.833798
vt 0.646102 0.182669
vt 0.666664 0.203198
vt 0.646102 0.203198
vt 0.666664 0.182669
vt 0.859852 0.521811
vt 0.839290 0.501282
vt 0.859852 0.501282
vt 0.839290 0.521811
vt 0.006157 0.614462
vt 0.047280 0.676048
vt 0.006157 0.676048
vt 0.026719 0.614462
vt 0.006157 0.593934
vt 0.026719 0.593934
vt 0.006157 0.573406
vt 0.026719 0.573406
vt 0.047280 0.573406
vt 0.841777 0.223726
vt 0.862339 0.326368
vt 0.841777 0.326368
vt 0.862339 0.223726
vt 0.026719 0.552877
vt 0.088403 0.573406
vt 0.088403 0.552877
vt 0.080156 0.909982
vt 0.100718 0.930511
vt 0.080156 0.930511
vt 0.100718 0.909982
vt 0.925604 0.755745
vt 0.946165 0.776274
vt 0.925604 0.776274
vt 0.946165 0.755745
vt 0.872167 0.542339
vt 0.892728 0.583396
vt 0.872167 0.583396
vt 0.892728 0.542339
vt 0.006157 0.963334
vt 0.026719 0.942806
vt 0.026719 0.963334
vt 0.006157 0.942805
vt 0.785853 0.952796
vt 0.806414 0.973324
vt 0.785853 0.973324
vt 0.806414 0.952796
vt 0.979041 0.026676
vt 0.958480 0.006147
vt 0.979041 0.006147
vt 0.958480 0.026676
vt 0.280176 0.913347
vt 0.300737 0.933875
vt 0.280176 0.933875
vt 0.300737 0.913347
vt 0.925604 0.722922
vt 0.946165 0.743451
vt 0.925604 0.743451
vt 0.946165 0.722922
vt 0.489858 0.973324
vt 0.510419 0.993852
vt 0.489858 0.993852
vt 0.510419 0.973324
vt 0.637855 0.899444
vt 0.617294 0.940501
vt 0.617294 0.899444
vt 0.637855 0.940501
vt 0.228154 0.922277
vt 0.248715 0.942806
vt 0.228154 0.942806
vt 0.248715 0.922277
vt 0.933851 0.833798
vt 0.913289 0.874854
vt 0.913289 0.833798
vt 0.933851 0.874854
vt 0.773539 0.792741
vt 0.814661 0.833798
vt 0.773539 0.833798
vt 0.814661 0.792741
vt 0.498105 0.067733
vt 0.518666 0.026676
vt 0.518666 0.067733
vt 0.498105 0.026676
vt 0.880413 0.739389
vt 0.880413 0.759918
vt 0.859852 0.759918
vt 0.892728 0.480754
vt 0.872166 0.439697
vt 0.892728 0.439697
vt 0.872166 0.480754
vt 0.859852 0.718861
vt 0.880413 0.718861
vt 0.958480 0.755745
vt 0.979041 0.776274
vt 0.958480 0.776274
vt 0.979041 0.755745
vt 0.925604 0.521811
vt 0.905042 0.521811
vt 0.925604 0.501282
vt 0.905042 0.501282
vt 0.203525 0.532349
vt 0.162402 0.532349
vt 0.203525 0.511820
vt 0.162402 0.511820
vt 0.880413 0.121084
vt 0.859852 0.121084
vt 0.859852 0.100556
vt 0.880413 0.833798
vt 0.900975 0.833798
vt 0.880413 0.874854
vt 0.900975 0.874854
vt 0.880413 0.080027
vt 0.859852 0.080027
vt 0.707787 0.833798
vt 0.666664 0.833798
vt 0.707787 0.792741
vt 0.666664 0.792741
vt 0.946165 0.006147
vt 0.946165 0.047204
vt 0.925604 0.006147
vt 0.925604 0.047204
vt 0.510419 0.961029
vt 0.489858 0.961029
vt 0.510419 0.940501
vt 0.489858 0.940501
vt 0.946165 0.710627
vt 0.925604 0.710627
vt 0.946165 0.690099
vt 0.925604 0.690099
vt 0.703607 0.899444
vt 0.703607 0.940501
vt 0.683046 0.899444
vt 0.683046 0.940501
vt 0.900975 0.961029
vt 0.880413 0.961029
vt 0.900975 0.940501
vt 0.880413 0.940501
vt 0.892728 0.521811
vt 0.872166 0.521810
vt 0.892728 0.501282
vt 0.872166 0.501282
vt 0.880413 0.207259
vt 0.859852 0.207259
vt 0.880413 0.186731
vt 0.859852 0.186731
vt 0.979041 0.677804
vt 0.958480 0.677804
vt 0.979041 0.657276
vt 0.958480 0.657276
vt 0.913289 0.698333
vt 0.892728 0.698333
vt 0.913289 0.657276
vt 0.892728 0.657276
vt 0.991356 0.575162
vt 0.991356 0.595691
vt 0.970794 0.575162
vt 0.970794 0.595691
vt 0.633788 0.203198
vt 0.613226 0.203198
vt 0.633788 0.182669
vt 0.613226 0.182669
vt 0.937918 0.484815
vt 0.958480 0.484815
vt 0.937918 0.505343
vt 0.958480 0.505343
vt 0.362422 0.966699
vt 0.341860 0.966699
vt 0.362422 0.946170
vt 0.341860 0.946170
vt 0.362422 0.699941
vt 0.321299 0.699941
vt 0.362422 0.638355
vt 0.341860 0.638355
vt 0.362422 0.617827
vt 0.341860 0.617827
vt 0.362422 0.597299
vt 0.341860 0.597299
vt 0.321299 0.597299
vt 0.530981 0.821503
vt 0.510419 0.821503
vt 0.530981 0.718861
vt 0.510419 0.718861
vt 0.341860 0.576770
vt 0.280176 0.597299
vt 0.280176 0.576770
vt 0.613226 0.447931
vt 0.572103 0.447931
vt 0.613226 0.427402
vt 0.572103 0.427402
vt 0.761224 0.833798
vt 0.740663 0.833798
vt 0.740663 0.813269
vt 0.880413 0.174436
vt 0.859852 0.174436
vt 0.880413 0.133379
vt 0.859852 0.133379
vt 0.761224 0.792741
vt 0.720101 0.813269
vt 0.720101 0.792741
vt 0.958480 0.562867
vt 0.937918 0.562867
vt 0.958480 0.542339
vt 0.937918 0.542339
vt 0.436420 0.699941
vt 0.374736 0.699941
vt 0.395298 0.638355
vt 0.374736 0.638355
vt 0.946165 0.657276
vt 0.946165 0.677804
vt 0.925604 0.657276
vt 0.925604 0.677804
vt 0.415859 0.597299
vt 0.395298 0.597299
vt 0.436420 0.576770
vt 0.415859 0.576770
vt 0.162402 0.951039
vt 0.141840 0.951039
vt 0.162402 0.930511
vt 0.141840 0.930511
vt 0.362422 0.933875
vt 0.341860 0.933875
vt 0.362422 0.913347
vt 0.341860 0.913347
vt 0.236401 0.729399
vt 0.195278 0.729399
vt 0.236401 0.626757
vt 0.195278 0.626757
vt 0.728348 0.203198
vt 0.687225 0.203198
vt 0.728348 0.162141
vt 0.687225 0.162141
vt 0.687225 0.542339
vt 0.707787 0.542339
vt 0.687225 0.583396
vt 0.666664 0.583396
vt 0.666664 0.624453
vt 0.687225 0.624453
vt 0.687225 0.686038
vt 0.707787 0.686038
vt 0.761224 0.530044
vt 0.740663 0.530044
vt 0.761224 0.386345
vt 0.740662 0.386345
vt 0.966727 0.952796
vt 0.946165 0.952796
vt 0.966727 0.932267
vt 0.946165 0.932267
vt 0.604979 0.993852
vt 0.584418 0.993852
vt 0.604979 0.973324
vt 0.584418 0.973324
vt 0.814661 0.203198
vt 0.794100 0.203198
vt 0.814661 0.162141
vt 0.794100 0.162141
vt 0.993843 0.342724
vt 0.973281 0.342724
vt 0.993843 0.322196
vt 0.973281 0.322196
vt 0.776025 0.223726
vt 0.796587 0.223726
vt 0.776025 0.367425
vt 0.796587 0.367425
vt 0.195278 0.909982
vt 0.195278 0.868926
vt 0.215839 0.909982
vt 0.215839 0.868926
vt 0.615713 0.223726
vt 0.636275 0.223726
vt 0.615713 0.244255
vt 0.595152 0.244255
vt 0.595152 0.285311
vt 0.574590 0.285311
vt 0.574590 0.367425
vt 0.595152 0.367425
vt 0.595152 0.387953
vt 0.636275 0.387953
vt 0.182963 0.478997
vt 0.224086 0.499526
vt 0.182963 0.499526
vt 0.224086 0.478997
vt 0.244647 0.458469
vt 0.162402 0.478997
vt 0.244647 0.478997
vt 0.162402 0.437941
vt 0.265209 0.458469
vt 0.141840 0.355827
vt 0.141840 0.437941
vt 0.162402 0.355827
vt 0.244647 0.335299
vt 0.265209 0.335299
vt 0.162402 0.314770
vt 0.182963 0.314770
vt 0.224086 0.314770
vt 0.244647 0.314770
vt 0.182963 0.294242
vt 0.224086 0.294242
vt 0.215839 0.762222
vt 0.195278 0.741694
vt 0.236401 0.741694
vt 0.195278 0.762222
vt 0.485790 0.026676
vt 0.424106 0.006147
vt 0.485790 0.006147
vt 0.465229 0.026676
vt 0.424106 0.026676
vt 0.465229 0.047204
vt 0.403544 0.026676
vt 0.444667 0.047204
vt 0.403544 0.047204
vt 0.236401 0.803279
vt 0.215839 0.803279
vt 0.341860 0.067733
vt 0.341860 0.047204
vt 0.321299 0.067733
vt 0.300737 0.047204
vt 0.321299 0.047204
vt 0.300737 0.067733
vt 0.403544 0.088261
vt 0.280176 0.067733
vt 0.362421 0.088261
vt 0.341860 0.088261
vt 0.403544 0.129318
vt 0.341860 0.129318
vt 0.341860 0.149846
vt 0.362421 0.129318
vt 0.321299 0.149846
vt 0.300737 0.149846
vt 0.280176 0.149846
vt 0.444667 0.170375
vt 0.403544 0.170375
vt 0.341860 0.170375
vt 0.321299 0.170375
vt 0.300737 0.170375
vt 0.100718 0.770456
vt 0.100718 0.729399
vt 0.121279 0.729399
vt 0.465229 0.190903
vt 0.465229 0.170375
vt 0.424106 0.190903
vt 0.403544 0.190903
vt 0.121279 0.790984
vt 0.080156 0.770456
vt 0.080156 0.790984
vt 0.485790 0.211431
vt 0.485790 0.190903
vt 0.424106 0.211431
vt 0.707786 0.047204
vt 0.687225 0.129318
vt 0.687225 0.047204
vt 0.707786 0.129318
vt 0.728348 0.006147
vt 0.707786 0.006147
vt 0.707787 0.149846
vt 0.728348 0.149846
vt 0.979041 0.809097
vt 0.958480 0.788569
vt 0.979041 0.788569
vt 0.958480 0.809097
vt 0.341860 0.806644
vt 0.382983 0.847700
vt 0.341860 0.847700
vt 0.382983 0.806644
vt 0.933851 0.973324
vt 0.913289 0.993852
vt 0.913289 0.973324
vt 0.933851 0.993852
vt 0.958480 0.419169
vt 0.937918 0.439697
vt 0.937918 0.419169
vt 0.958480 0.439697
vt 0.826976 0.874854
vt 0.868099 0.833798
vt 0.868099 0.874854
vt 0.826976 0.833798
vt 0.958480 0.386345
vt 0.937918 0.406874
vt 0.937918 0.386345
vt 0.958480 0.406874
vt 0.743149 0.367425
vt 0.763711 0.223726
vt 0.763711 0.367425
vt 0.743149 0.326368
vt 0.743149 0.244254
vt 0.743149 0.223726
vt 0.722588 0.326368
vt 0.722588 0.244255
vt 0.670731 0.899444
vt 0.650170 0.940501
vt 0.650170 0.899444
vt 0.670731 0.940501
vt 0.826976 0.973324
vt 0.847537 0.993852
vt 0.826976 0.993852
vt 0.847537 0.973324
vt 0.979041 0.722922
vt 0.958480 0.743451
vt 0.958480 0.722922
vt 0.979041 0.743451
vt 0.895215 0.330429
vt 0.874653 0.371486
vt 0.874653 0.330429
vt 0.895215 0.371486
vt 0.839290 0.488987
vt 0.859852 0.386345
vt 0.859852 0.488987
vt 0.839290 0.386345
vt 0.781785 0.182669
vt 0.740662 0.203198
vt 0.740662 0.182669
vt 0.781785 0.203198
vt 0.892728 0.100556
vt 0.913289 0.059499
vt 0.913289 0.100556
vt 0.892728 0.059499
vt 0.650170 0.887149
vt 0.670731 0.846093
vt 0.670731 0.887149
vt 0.650170 0.846093
vt 0.720101 0.718861
vt 0.761224 0.698333
vt 0.761224 0.718861
vt 0.720101 0.698333
vt 0.829463 0.223726
vt 0.808901 0.326368
vt 0.808901 0.223726
vt 0.829463 0.326368
vt 0.925604 0.595691
vt 0.905043 0.636747
vt 0.905043 0.595691
vt 0.925604 0.636747
vt 0.940405 0.330429
vt 0.960967 0.350958
vt 0.940405 0.350958
vt 0.960967 0.330429
vt 0.925604 0.386345
vt 0.905042 0.427402
vt 0.905042 0.386345
vt 0.925604 0.427402
vt 0.993843 0.289373
vt 0.973281 0.309901
vt 0.973281 0.289373
vt 0.993843 0.309901
vt 0.979041 0.133379
vt 0.958480 0.112851
vt 0.979041 0.112851
vt 0.958480 0.133379
vt 0.958480 0.145674
vt 0.979041 0.166202
vt 0.958480 0.166202
vt 0.979041 0.145674
vt 0.572103 0.121084
vt 0.592665 0.203198
vt 0.572103 0.203198
vt 0.592665 0.121084
vt 0.100718 0.717104
vt 0.100717 0.552877
vt 0.121279 0.717104
vt 0.121279 0.696576
vt 0.121279 0.552877
vt 0.604979 0.961029
vt 0.584418 0.961029
vt 0.604979 0.940501
vt 0.584418 0.940501
vt 0.720101 0.887149
vt 0.720101 0.846093
vt 0.740663 0.887149
vt 0.740663 0.846093
vt 0.839291 0.644981
vt 0.839290 0.542339
vt 0.859852 0.644981
vt 0.859852 0.542339
vt 0.436420 0.773821
vt 0.436420 0.794349
vt 0.395298 0.773821
vt 0.395298 0.794349
vt 0.572103 0.993853
vt 0.551542 0.993853
vt 0.572103 0.973324
vt 0.551542 0.973324
vt 0.080156 0.897688
vt 0.080156 0.856631
vt 0.100718 0.897688
vt 0.100718 0.856631
vt 0.872167 0.636747
vt 0.872167 0.595691
vt 0.892728 0.636747
vt 0.892728 0.595691
vt 0.424106 0.919972
vt 0.424106 0.940501
vt 0.403544 0.919973
vt 0.403544 0.940501
vt 0.321299 0.773820
vt 0.321299 0.794349
vt 0.280176 0.773820
vt 0.280176 0.794349
vt 0.826976 0.108789
vt 0.826976 0.006147
vt 0.847537 0.108789
vt 0.847537 0.006147
vt 0.617294 0.887149
vt 0.617294 0.846093
vt 0.637855 0.887149
vt 0.637855 0.846093
vt 0.958480 0.451992
vt 0.958480 0.472520
vt 0.937918 0.451992
vt 0.937918 0.472520
vt 0.773539 0.706566
vt 0.773539 0.686038
vt 0.794100 0.706566
vt 0.773539 0.542339
vt 0.794100 0.542339
vt 0.826976 0.386345
vt 0.826976 0.530044
vt 0.806414 0.386345
vt 0.806414 0.530044
vt 0.958480 0.595691
vt 0.937918 0.595691
vt 0.958480 0.575162
vt 0.937918 0.575162
vt 0.444667 0.854326
vt 0.403544 0.854326
vt 0.424106 0.833798
vt 0.403544 0.833798
vt 0.444667 0.813269
vt 0.424106 0.813269
vt 0.403544 0.441305
vt 0.403544 0.543947
vt 0.382983 0.543947
vt 0.382983 0.564475
vt 0.300737 0.543947
vt 0.300737 0.564475
vt 0.280176 0.441305
vt 0.280176 0.543947
vt 0.703607 0.887149
vt 0.683046 0.887149
vt 0.703607 0.846093
vt 0.683046 0.846093
vt 0.702027 0.379720
vt 0.702027 0.400248
vt 0.681465 0.379720
vt 0.681465 0.400248
vt 0.806415 0.686038
vt 0.806415 0.542339
vt 0.826976 0.686038
vt 0.826976 0.542339
vt 0.280176 0.223726
vt 0.424106 0.223726
vt 0.280176 0.244255
vt 0.403544 0.244255
vt 0.424106 0.244255
vt 0.966727 0.985619
vt 0.946165 0.985619
vt 0.966727 0.965090
vt 0.946165 0.965090
vt 0.444667 0.244255
vt 0.403544 0.285311
vt 0.424106 0.285311
vt 0.424106 0.387953
vt 0.477543 0.961029
vt 0.456982 0.961029
vt 0.477543 0.940501
vt 0.456982 0.940501
vt 0.403544 0.387953
vt 0.403544 0.408482
vt 0.424106 0.408482
vt 0.444667 0.408482
vt 0.280176 0.408482
vt 0.280176 0.429010
vt 0.424106 0.429010
vt 0.121279 0.844336
vt 0.080156 0.844336
vt 0.121279 0.823808
vt 0.100718 0.823808
vt 0.100718 0.803279
vt 0.080156 0.803279
vt 0.960967 0.277078
vt 0.940405 0.277078
vt 0.960967 0.256549
vt 0.940405 0.256549
vt 0.991356 0.406874
vt 0.970794 0.406874
vt 0.991356 0.386345
vt 0.970794 0.386345
vt 0.572103 0.874855
vt 0.551542 0.874855
vt 0.572103 0.772213
vt 0.551542 0.772213
vt 0.966727 0.887149
vt 0.946165 0.887149
vt 0.966727 0.866621
vt 0.946165 0.866621
vt 0.554176 0.415107
vt 0.478581 0.382761
vt 0.562276 0.396239
vt 0.505579 0.371979
vt 0.486680 0.363893
vt 0.467781 0.355806
vt 0.513679 0.353111
vt 0.494780 0.345024
vt 0.475881 0.336938
vt 0.477543 0.874854
vt 0.456982 0.874854
vt 0.477543 0.813269
vt 0.456982 0.813269
vt 0.456982 0.328851
vt 0.535277 0.250681
vt 0.516378 0.242595
vt 0.497479 0.234508
vt 0.554176 0.258768
vt 0.562276 0.239899
vt 0.524478 0.223726
vt 0.539227 0.571101
vt 0.477543 0.571101
vt 0.539227 0.550573
vt 0.498105 0.550573
vt 0.477543 0.550573
vt 0.456982 0.550573
vt 0.498105 0.530044
vt 0.477543 0.530044
vt 0.477543 0.468459
vt 0.498105 0.468459
vt 0.498105 0.447931
vt 0.477543 0.447931
vt 0.456982 0.447931
vt 0.539227 0.447931
vt 0.539227 0.427402
vt 0.477543 0.427402
vt 0.728348 0.530044
vt 0.687225 0.530044
vt 0.728348 0.509516
vt 0.707787 0.509516
vt 0.687225 0.509516
vt 0.666664 0.509516
vt 0.707787 0.488987
vt 0.687225 0.488987
vt 0.687225 0.468459
vt 0.707787 0.468459
vt 0.707787 0.447931
vt 0.687225 0.447931
vt 0.666664 0.447931
vt 0.728348 0.447931
vt 0.728348 0.427402
vt 0.687225 0.427402
vt 0.047280 0.823808
vt 0.026719 0.823808
vt 0.026719 0.803279
vt 0.026719 0.782751
vt 0.006157 0.803279
vt 0.006157 0.782751
vt 0.047280 0.762223
vt 0.026719 0.762223
vt 0.895215 0.277078
vt 0.874653 0.318135
vt 0.874653 0.277078
vt 0.895215 0.318135
vt 0.026719 0.889454
vt 0.006157 0.930511
vt 0.006157 0.889454
vt 0.026719 0.930511
vt 0.928091 0.318135
vt 0.907529 0.277078
vt 0.928091 0.277078
vt 0.907529 0.318135
vt 0.300737 0.901052
vt 0.280176 0.859995
vt 0.300737 0.859995
vt 0.280176 0.901052
vt 0.913289 0.153907
vt 0.892728 0.112851
vt 0.913289 0.112851
vt 0.892728 0.153907
vt 0.913289 0.759918
vt 0.892728 0.718861
vt 0.913289 0.718861
vt 0.892728 0.759918
vt 0.572103 0.887149
vt 0.551542 0.928206
vt 0.551542 0.887149
vt 0.572103 0.928206
vt 0.925604 0.542339
vt 0.905043 0.583396
vt 0.905043 0.542339
vt 0.925604 0.583396
vt 0.551542 0.961029
vt 0.572103 0.940501
vt 0.572103 0.961029
vt 0.551542 0.940501
vt 0.826976 0.961029
vt 0.847537 0.940501
vt 0.847537 0.961029
vt 0.826976 0.940501
vt 0.689712 0.367425
vt 0.710273 0.346897
vt 0.710273 0.367425
vt 0.710273 0.223726
vt 0.710273 0.264783
vt 0.689712 0.346897
vt 0.689712 0.244255
vt 0.689712 0.223726
vt 0.669151 0.346897
vt 0.669151 0.326368
vt 0.669151 0.264783
vt 0.669151 0.244255
vt 0.648589 0.326368
vt 0.648589 0.264783
vt 0.166088 0.238400
vt 0.238783 0.194852
vt 0.180627 0.252915
vt 0.224244 0.180337
vt 0.107931 0.267431
vt 0.122470 0.281947
vt 0.267861 0.136789
vt 0.122470 0.252915
vt 0.151548 0.223884
vt 0.209705 0.165821
vt 0.238783 0.136789
vt 0.253322 0.122274
vt 0.078853 0.267431
vt 0.093392 0.281947
vt 0.093392 0.252915
vt 0.107931 0.238400
vt 0.137009 0.209368
vt 0.151548 0.194852
vt 0.180627 0.165821
vt 0.195166 0.151305
vt 0.224244 0.122274
vt 0.267861 0.107758
vt 0.238783 0.107758
vt 0.253322 0.093242
vt 0.049775 0.267431
vt 0.064314 0.281947
vt 0.064314 0.252915
vt 0.238783 0.078726
vt 0.267861 0.078726
vt 0.253322 0.064210
vt 0.049775 0.238400
vt 0.064314 0.223884
vt 0.122470 0.165821
vt 0.151548 0.136789
vt 0.209705 0.078726
vt 0.224244 0.064210
vt 0.035236 0.223884
vt 0.078853 0.209368
vt 0.049775 0.209368
vt 0.064314 0.194852
vt 0.093392 0.165821
vt 0.166088 0.122274
vt 0.107931 0.180337
vt 0.151548 0.107758
vt 0.195166 0.064210
vt 0.195166 0.093242
vt 0.209705 0.049695
vt 0.035236 0.194852
vt 0.078853 0.180337
vt 0.049775 0.180337
vt 0.064314 0.165821
vt 0.166088 0.064210
vt 0.180627 0.049695
vt 0.064314 0.136789
vt 0.078853 0.151305
vt 0.137009 0.064210
vt 0.151548 0.078726
vt 0.020696 0.151305
vt 0.078853 0.122274
vt 0.035236 0.136789
vt 0.064314 0.107758
vt 0.107931 0.064210
vt 0.122470 0.078726
vt 0.020696 0.122274
vt 0.035236 0.107758
vt 0.107931 0.035179
vt 0.122470 0.020663
vt 0.020696 0.093242
vt 0.035236 0.078726
vt 0.078853 0.035179
vt 0.093392 0.020663
vt 0.006157 0.049695
vt 0.049775 0.006147
vt 0.341860 0.901052
vt 0.362422 0.859995
vt 0.362422 0.901052
vt 0.341860 0.859995
vt 0.874653 0.264783
vt 0.895215 0.223726
vt 0.895215 0.264783
vt 0.874653 0.223726
vt 0.841777 0.359191
vt 0.862339 0.338663
vt 0.862339 0.359191
vt 0.841777 0.338663
vt 0.946165 0.809097
vt 0.925604 0.788569
vt 0.946165 0.788569
vt 0.925604 0.809097
vt 0.958480 0.710627
vt 0.979041 0.690099
vt 0.979041 0.710627
vt 0.958480 0.690099
vt 0.720101 0.973324
vt 0.740663 0.952796
vt 0.740663 0.973324
vt 0.720101 0.952796
vt 0.913289 0.887149
vt 0.933851 0.887149
vt 0.913289 0.928206
vt 0.933851 0.928206
vt 0.604979 0.928206
vt 0.584418 0.928206
vt 0.604979 0.887149
vt 0.584418 0.887149
vt 0.104785 0.963334
vt 0.104785 0.942806
vt 0.125347 0.963334
vt 0.125347 0.942806
vt 0.773539 0.952796
vt 0.773539 0.973324
vt 0.752977 0.952796
vt 0.752977 0.973324
vt 0.826976 0.887149
vt 0.847537 0.887149
vt 0.826976 0.928206
vt 0.847537 0.928206
vt 0.141840 0.983863
vt 0.141840 0.963334
vt 0.162402 0.983863
vt 0.162402 0.963334
vt 0.683046 0.952796
vt 0.703607 0.952796
vt 0.683046 0.973324
vt 0.703607 0.973324
vt 0.880413 0.006147
vt 0.880413 0.067733
vt 0.859852 0.006147
vt 0.859852 0.067733
vt 0.925604 0.166202
vt 0.946165 0.166202
vt 0.925604 0.186731
vt 0.946165 0.186731
vt 0.195278 0.922277
vt 0.215839 0.922277
vt 0.195278 0.942806
vt 0.215839 0.942806
vt 0.993843 0.256549
vt 0.993843 0.277078
vt 0.973281 0.256549
vt 0.973281 0.277078
vt 0.847537 0.718861
vt 0.847537 0.821503
vt 0.826976 0.718861
vt 0.826976 0.821503
vt 0.946165 0.833798
vt 0.966727 0.833798
vt 0.946165 0.854326
vt 0.966727 0.854326
vt 0.913289 0.940501
vt 0.933851 0.940501
vt 0.913289 0.961029
vt 0.933851 0.961029
vt 0.993843 0.223726
vt 0.993843 0.244255
vt 0.973281 0.223726
vt 0.973281 0.244255
vt 0.979041 0.178497
vt 0.979041 0.199025
vt 0.958480 0.178497
vt 0.958480 0.199025
vt 0.415859 0.564475
vt 0.415859 0.441305
vt 0.436420 0.564475
vt 0.436420 0.441305
vt 0.991356 0.484815
vt 0.991356 0.505343
vt 0.970794 0.484815
vt 0.970794 0.505343
vt 0.979041 0.038971
vt 0.979041 0.059499
vt 0.958480 0.038971
vt 0.958480 0.059499
vt 0.773539 0.899444
vt 0.773539 0.940501
vt 0.752977 0.899444
vt 0.752977 0.940501
vt 0.946165 0.899444
vt 0.966727 0.899444
vt 0.946165 0.919972
vt 0.966727 0.919972
vt 0.162402 0.762223
vt 0.162402 0.864864
vt 0.141840 0.762223
vt 0.141840 0.864864
vt 0.991356 0.419169
vt 0.991356 0.439697
vt 0.970794 0.419169
vt 0.970794 0.439697
vt 0.424106 0.952796
vt 0.424106 0.973324
vt 0.403544 0.952796
vt 0.403544 0.973324
vt 0.991356 0.542339
vt 0.991356 0.562867
vt 0.970794 0.542339
vt 0.970794 0.562867
vt 0.670731 0.973324
vt 0.650170 0.973324
vt 0.670731 0.952796
vt 0.650170 0.952796
vt 0.162402 0.918216
vt 0.141840 0.918216
vt 0.162402 0.877159
vt 0.141840 0.877159
vt 0.913289 0.207259
vt 0.892728 0.207259
vt 0.913289 0.166202
vt 0.892728 0.166202
vt 0.477543 0.973324
vt 0.477543 0.993852
vt 0.456982 0.973324
vt 0.456982 0.993852
vt 0.300737 0.946170
vt 0.300737 0.966698
vt 0.280176 0.946170
vt 0.280176 0.966698
vt 0.092471 0.942806
vt 0.092471 0.963334
vt 0.071909 0.942806
vt 0.071909 0.963334
vt 0.228154 0.955100
vt 0.248715 0.955100
vt 0.228154 0.975629
vt 0.248715 0.975629
vt 0.584418 0.874855
vt 0.584418 0.772213
vt 0.604979 0.874855
vt 0.604979 0.772213
vt 0.006157 0.499526
vt 0.006157 0.478997
vt 0.026719 0.499526
vt 0.006157 0.355827
vt 0.006157 0.335299
vt 0.026719 0.335299
vt 0.026719 0.520054
vt 0.047280 0.520054
vt 0.047280 0.499526
vt 0.047280 0.478997
vt 0.026719 0.314770
vt 0.047280 0.355827
vt 0.047280 0.335299
vt 0.047280 0.314770
vt 0.047280 0.540583
vt 0.088403 0.540583
vt 0.088403 0.520054
vt 0.088403 0.499526
vt 0.047280 0.294242
vt 0.088403 0.335299
vt 0.088403 0.314770
vt 0.088403 0.294242
vt 0.088403 0.478997
vt 0.108964 0.520054
vt 0.108964 0.499526
vt 0.108964 0.478997
vt 0.108964 0.355827
vt 0.088403 0.355827
vt 0.108964 0.335299
vt 0.108964 0.314770
vt 0.129526 0.499526
vt 0.129526 0.335299
vt 0.970794 0.607985
vt 0.991356 0.607985
vt 0.970794 0.628514
vt 0.991356 0.628514
vt 0.958480 0.071794
vt 0.979041 0.071794
vt 0.958480 0.092322
vt 0.979041 0.092322
vt 0.059595 0.930511
vt 0.039033 0.930511
vt 0.059595 0.889454
vt 0.039033 0.889454
vt 0.913289 0.813269
vt 0.892728 0.813269
vt 0.913289 0.772213
vt 0.892728 0.772213
vt 0.215839 0.955100
vt 0.215839 0.975629
vt 0.195278 0.955100
vt 0.195278 0.975629
vt 0.991356 0.451992
vt 0.991356 0.472520
vt 0.970794 0.451992
vt 0.970794 0.472520
vt 0.456982 0.686038
vt 0.456982 0.603924
vt 0.477543 0.686038
vt 0.477543 0.603924
vt 0.477543 0.706566
vt 0.498105 0.686038
vt 0.477543 0.583396
vt 0.498105 0.603924
vt 0.539227 0.706566
vt 0.539227 0.686038
vt 0.539227 0.603924
vt 0.539227 0.583396
vt 0.826976 0.203198
vt 0.826976 0.121084
vt 0.847537 0.203198
vt 0.847537 0.121084
vt 0.839290 0.657276
vt 0.880413 0.698332
vt 0.839290 0.698332
vt 0.880413 0.657276
vt 0.047280 0.729399
vt 0.067842 0.749928
vt 0.047280 0.749928
vt 0.047280 0.708871
vt 0.067842 0.708871
vt 0.559789 0.162141
vt 0.559789 0.182669
vt 0.539227 0.162141
vt 0.518666 0.162141
vt 0.518666 0.182669
vt 0.047280 0.877159
vt 0.006157 0.877159
vt 0.047280 0.836102
vt 0.006157 0.836102
vt 0.925604 0.112851
vt 0.946165 0.153907
vt 0.925604 0.153907
vt 0.946165 0.112851
vt 0.498105 0.800974
vt 0.456982 0.718861
vt 0.498105 0.718861
vt 0.456982 0.800974
vt 0.382983 0.794349
vt 0.341860 0.794349
vt 0.382983 0.712235
vt 0.341860 0.712235
vt 0.424106 0.866621
vt 0.403544 0.907678
vt 0.403544 0.866621
vt 0.424106 0.907678
vt 0.707787 0.698333
vt 0.707787 0.780446
vt 0.666664 0.698333
vt 0.666664 0.780446
vt 0.654349 0.562867
vt 0.551542 0.542339
vt 0.654349 0.542339
vt 0.613226 0.562867
vt 0.572103 0.562867
vt 0.551542 0.562867
vt 0.026719 0.708871
vt 0.026719 0.729399
vt 0.006157 0.688343
vt 0.006157 0.708871
vt 0.067842 0.688343
vt 0.580350 0.108789
vt 0.600912 0.006147
vt 0.600912 0.108789
vt 0.580350 0.067733
vt 0.580350 0.026676
vt 0.580350 0.006147
vt 0.244647 0.614462
vt 0.141840 0.614462
vt 0.244647 0.593934
vt 0.203525 0.593934
vt 0.162402 0.593934
vt 0.141840 0.593934
vt 0.539227 0.141613
vt 0.518666 0.141613
vt 0.518666 0.121084
vt 0.498105 0.121084
vt 0.498105 0.182669
vt 0.654349 0.530044
vt 0.551542 0.530044
vt 0.654349 0.509516
vt 0.613226 0.509516
vt 0.572103 0.509516
vt 0.551542 0.509516
vt 0.925604 0.480754
vt 0.905042 0.439697
vt 0.925604 0.439697
vt 0.905042 0.480754
vt 0.880413 0.813269
vt 0.859852 0.772213
vt 0.880413 0.772213
vt 0.859852 0.813269
vt 0.928091 0.371486
vt 0.907529 0.330429
vt 0.928091 0.330429
vt 0.907529 0.371486
vt 0.456982 0.887149
vt 0.477543 0.928206
vt 0.456982 0.928206
vt 0.477543 0.887149
vt 0.781785 0.121084
vt 0.740662 0.121084
vt 0.720101 0.780446
vt 0.761224 0.780446
vt 0.436420 0.712235
vt 0.395298 0.712235
vt 0.321299 0.712235
vt 0.280176 0.712235
vt 0.740663 0.940501
vt 0.720101 0.940501
vt 0.740663 0.899444
vt 0.720101 0.899444
vt 0.913289 0.047204
vt 0.892728 0.047204
vt 0.913289 0.006147
vt 0.892728 0.006147
vt 0.740662 0.006147
vt 0.781785 0.108789
vt 0.740662 0.108789
vt 0.781785 0.006147
vt 0.646102 0.759918
vt 0.604979 0.657276
vt 0.646102 0.657276
vt 0.604979 0.759918
vt 0.806414 0.899444
vt 0.785853 0.940501
vt 0.785853 0.899444
vt 0.806414 0.940501
vt 0.489858 0.928206
vt 0.510419 0.887149
vt 0.510419 0.928206
vt 0.489858 0.887149
vt 0.489858 0.833798
vt 0.530981 0.833798
vt 0.489858 0.874854
vt 0.530981 0.874854
vt 0.236401 0.856631
vt 0.195278 0.856631
vt 0.236401 0.815574
vt 0.195278 0.815574
vt 0.880413 0.928206
vt 0.880413 0.887149
vt 0.900975 0.928206
vt 0.900975 0.887149
vt 0.928091 0.223726
vt 0.928091 0.264783
vt 0.907529 0.223726
vt 0.907529 0.264783
vt 0.773539 0.718861
vt 0.814661 0.718861
vt 0.773539 0.780446
vt 0.814661 0.780446
vn -0.0000 0.0000 1.0000
vn 0.0000 0.0000 -1.0000
vn 1.0000 -0.0000 -0.0000
vn -1.0000 0.0000 0.0000
vn 0.0000 -1.0000 0.0000
vn 0.0000 1.0000 0.0000
s 1
f 1/1/1 2/2/1 3/3/1
f 4/4/1 1/1/1 5/5/1
f 6/6/1 4/4/1 7/7/1
f 8/8/1 1/1/1 4/4/1
f 8/8/1 4/4/1 6/6/1
f 9/9/1 1/1/1 8/8/1
f 10/10/1 2/2/1 1/1/1
f 10/10/1 1/1/1 9/9/1
f 11/11/1 12/12/1 13/13/1
f 14/14/1 12/12/1 11/11/1
f 15/15/1 16/16/1 17/17/1
f 18/18/1 16/16/1 15/15/1
f 19/19/1 20/20/1 21/21/1
f 22/22/1 20/20/1 19/19/1
f 23/23/1 19/24/1 18/25/1
f 24/26/1 19/24/1 23/23/1
f 25/27/1 26/28/1 27/29/1
f 28/30/1 26/28/1 25/27/1
f 29/31/1 30/32/1 31/33/1
f 32/34/1 29/31/1 33/35/1
f 34/36/1 30/32/1 29/31/1
f 34/36/1 29/31/1 32/34/1
f 35/37/1 30/32/1 34/36/1
f 36/38/1 30/32/1 35/37/1
f 37/39/1 38/40/1 39/41/1
f 40/42/1 38/40/1 37/39/1
f 41/43/1 42/44/1 36/45/1
f 43/46/1 42/44/1 41/43/1
f 44/47/1 37/48/1 45/49/1
f 46/50/1 37/48/1 44/47/1
f 55/51/1 54/52/1 53/53/1
f 56/54/1 54/52/1 55/51/1
f 57/55/1 55/56/1 58/57/1
f 59/58/1 55/56/1 57/55/1
f 60/59/1 61/60/1 56/61/1
f 62/62/1 61/60/1 60/59/1
f 63/63/1 64/64/1 65/65/1
f 66/66/1 64/64/1 63/63/1
f 67/67/1 68/68/1 69/69/1
f 70/70/1 68/68/1 67/67/1
f 71/71/1 72/72/1 73/73/1
f 74/74/1 72/72/1 71/71/1
f 75/75/1 67/67/1 69/69/1
f 76/76/1 67/67/1 75/75/1
f 77/77/1 78/78/1 79/79/1
f 80/80/1 78/78/1 77/77/1
f 81/81/1 82/82/1 83/83/1
f 84/84/1 82/82/1 81/81/1
f 85/85/1 86/86/1 87/87/1
f 88/88/1 86/86/1 85/85/1
f 89/89/1 90/90/1 91/91/1
f 92/92/1 90/90/1 89/89/1
f 93/93/1 94/94/1 95/95/1
f 96/96/1 94/94/1 93/93/1
f 97/97/1 98/98/1 99/99/1
f 100/100/1 98/98/1 97/97/1
f 101/101/1 102/102/1 103/103/1
f 104/104/1 102/102/1 101/101/1
f 105/105/1 106/106/1 107/107/1
f 108/108/1 106/106/1 105/105/1
f 109/109/1 108/108/1 105/105/1
f 110/110/1 106/106/1 108/108/1
f 110/110/1 108/108/1 109/109/1
f 111/111/1 110/110/1 109/109/1
f 112/112/1 106/106/1 110/110/1
f 112/112/1 110/110/1 111/111/1
f 113/113/1 106/106/1 112/112/1
f 114/114/1 115/115/1 116/116/1
f 117/117/1 115/115/1 114/114/1
f 118/118/1 113/113/1 112/112/1
f 118/118/1 114/119/1 113/113/1
f 119/120/1 114/119/1 118/118/1
f 120/121/1 121/122/1 122/123/1
f 123/124/1 121/122/1 120/121/1
f 124/125/1 125/126/1 126/127/1
f 127/128/1 125/126/1 124/125/1
f 128/129/1 129/130/1 130/131/1
f 131/132/1 129/130/1 128/129/1
f 132/133/1 133/134/1 134/135/1
f 135/136/1 133/134/1 132/133/1
f 136/137/1 137/138/1 138/139/1
f 139/140/1 137/138/1 136/137/1
f 140/141/1 136/142/1 141/143/1
f 142/144/1 136/142/1 140/141/1
f 143/145/1 144/146/1 145/147/1
f 146/148/1 144/146/1 143/145/1
f 147/149/1 148/150/1 149/151/1
f 150/152/1 148/150/1 147/149/1
f 154/153/1 155/154/1 156/155/1
f 157/156/1 155/154/1 154/153/1
f 158/157/1 159/158/1 160/159/1
f 161/160/1 159/158/1 158/157/1
f 162/161/1 163/162/1 164/163/1
f 165/164/1 163/162/1 162/161/1
f 176/165/1 177/166/1 178/167/1
f 179/168/1 177/166/1 176/165/1
f 180/169/1 181/170/1 182/171/1
f 183/172/1 181/170/1 180/169/1
f 192/173/1 191/174/1 190/175/1
f 193/176/1 191/174/1 192/173/1
f 194/177/1 195/178/1 193/179/1
f 196/180/1 192/181/1 197/182/1
f 198/183/1 192/181/1 196/180/1
f 199/184/1 194/177/1 193/179/1
f 200/185/1 194/177/1 199/184/1
f 201/186/1 202/187/1 203/188/1
f 204/189/1 202/187/1 201/186/1
f 205/190/2 206/191/2 207/192/2
f 207/192/2 206/191/2 208/193/2
f 215/194/2 216/195/2 217/196/2
f 217/196/2 216/195/2 218/197/2
f 218/198/2 219/199/2 220/200/2
f 221/201/2 217/202/2 222/203/2
f 222/203/2 217/202/2 223/204/2
f 218/198/2 220/200/2 224/205/2
f 224/205/2 220/200/2 225/206/2
f 226/207/2 227/208/2 228/209/2
f 228/209/2 227/208/2 229/210/2
f 230/211/2 231/212/2 232/213/2
f 232/213/2 231/212/2 233/214/2
f 244/215/2 245/216/2 246/217/2
f 246/217/2 245/216/2 247/218/2
f 248/219/2 249/220/2 250/221/2
f 250/221/2 249/220/2 251/222/2
f 252/223/2 253/224/2 254/225/2
f 254/225/2 253/224/2 255/226/2
f 256/227/2 257/228/2 258/229/2
f 258/229/2 257/228/2 259/230/2
f 260/231/2 261/232/2 262/233/2
f 262/233/2 261/232/2 263/234/2
f 264/235/2 265/236/2 266/237/2
f 266/237/2 265/236/2 267/238/2
f 271/239/2 272/240/2 273/241/2
f 273/241/2 272/240/2 274/242/2
f 275/243/2 276/244/2 277/245/2
f 277/245/2 276/244/2 278/246/2
f 279/247/2 280/248/2 281/249/2
f 281/249/2 280/248/2 282/250/2
f 283/251/2 284/252/2 285/253/2
f 285/253/2 284/252/2 286/254/2
f 287/255/2 288/256/2 289/257/2
f 289/257/2 288/256/2 290/258/2
f 291/259/2 289/260/2 292/261/2
f 292/261/2 289/260/2 293/262/2
f 294/263/2 295/264/2 296/265/2
f 296/265/2 295/264/2 297/266/2
f 296/265/2 297/266/2 298/267/2
f 297/266/2 295/264/2 299/268/2
f 298/267/2 297/266/2 299/268/2
f 298/267/2 299/268/2 300/269/2
f 299/268/2 295/264/2 301/270/2
f 300/269/2 299/268/2 301/270/2
f 301/270/2 295/264/2 302/271/2
f 303/272/2 304/273/2 305/274/2
f 305/274/2 304/273/2 306/275/2
f 301/270/2 302/271/2 307/276/2
f 302/271/2 305/277/2 307/276/2
f 307/276/2 305/277/2 308/278/2
f 315/279/2 316/280/2 317/281/2
f 317/281/2 316/280/2 318/282/2
f 318/283/2 319/284/2 320/285/2
f 321/286/2 317/287/2 322/288/2
f 322/288/2 317/287/2 323/289/2
f 318/283/2 320/285/2 324/290/2
f 320/285/2 325/291/2 324/290/2
f 324/290/2 325/291/2 326/292/2
f 327/293/2 328/294/2 329/295/2
f 329/295/2 328/294/2 330/296/2
f 326/297/2 331/298/2 332/299/2
f 332/299/2 331/298/2 333/300/2
f 334/301/2 335/302/2 336/303/2
f 336/303/2 335/302/2 337/304/2
f 326/297/2 332/299/2 338/305/2
f 338/305/2 332/299/2 339/306/2
f 326/297/2 338/305/2 340/307/2
f 340/307/2 338/305/2 341/308/2
f 342/309/2 343/310/2 344/311/2
f 344/311/2 343/310/2 345/312/2
f 346/313/2 347/314/2 348/315/2
f 348/315/2 347/314/2 349/316/2
f 350/317/2 351/318/2 352/319/2
f 352/319/2 351/318/2 353/320/2
f 354/321/2 355/322/2 356/323/2
f 356/323/2 355/322/2 357/324/2
f 358/325/2 359/326/2 360/327/2
f 361/328/2 360/327/2 362/329/2
f 360/327/2 359/326/2 363/330/2
f 362/329/2 360/327/2 363/330/2
f 363/330/2 359/326/2 364/331/2
f 364/331/2 359/326/2 365/332/2
f 366/333/2 367/334/2 368/335/2
f 368/335/2 367/334/2 369/336/2
f 365/337/2 370/338/2 371/339/2
f 371/339/2 370/338/2 372/340/2
f 373/341/2 368/342/2 374/343/2
f 374/343/2 368/342/2 375/344/2
f 376/345/2 377/346/2 378/347/2
f 378/347/2 377/346/2 379/348/2
f 380/349/2 381/350/2 382/351/2
f 382/351/2 381/350/2 383/352/2
f 384/353/2 385/354/2 386/355/2
f 386/355/2 385/354/2 387/356/2
f 383/357/2 386/358/2 388/359/2
f 388/359/2 386/358/2 389/360/2
f 390/361/2 391/362/2 392/363/2
f 393/364/2 392/363/2 394/365/2
f 395/366/2 394/365/2 396/367/2
f 394/365/2 392/363/2 397/368/2
f 396/367/2 394/365/2 397/368/2
f 397/368/2 392/363/2 398/369/2
f 392/363/2 391/362/2 399/370/2
f 398/369/2 392/363/2 399/370/2
f 408/371/3 409/372/3 410/373/3
f 411/374/3 409/372/3 408/371/3
f 412/375/3 408/371/3 413/376/3
f 412/375/3 414/377/3 411/374/3
f 412/375/3 411/374/3 408/371/3
f 415/378/3 412/375/3 413/376/3
f 415/378/3 416/379/3 412/375/3
f 421/380/3 415/378/3 422/381/3
f 423/382/3 416/379/3 415/378/3
f 423/382/3 415/378/3 421/380/3
f 424/383/3 416/379/3 423/382/3
f 425/384/3 416/379/3 424/383/3
f 426/385/3 424/383/3 423/382/3
f 427/386/3 424/383/3 426/385/3
f 428/387/3 424/383/3 427/386/3
f 429/388/3 424/383/3 428/387/3
f 430/389/3 428/387/3 427/386/3
f 431/390/3 428/387/3 430/389/3
f 432/391/3 433/392/3 434/393/3
f 435/394/3 433/392/3 432/391/3
f 436/395/3 437/396/3 438/397/3
f 439/398/3 437/396/3 436/395/3
f 440/399/3 437/396/3 439/398/3
f 441/400/3 442/401/3 440/399/3
f 441/400/3 440/399/3 439/398/3
f 443/402/3 442/401/3 441/400/3
f 444/403/3 442/401/3 443/402/3
f 449/404/3 432/391/3 434/393/3
f 450/405/3 432/391/3 449/404/3
f 451/406/3 444/403/3 443/402/3
f 451/406/3 453/407/3 444/403/3
f 454/408/3 455/409/3 452/410/3
f 456/411/3 455/409/3 454/408/3
f 457/412/3 451/406/3 443/402/3
f 457/412/3 458/413/3 456/411/3
f 457/412/3 456/411/3 454/408/3
f 457/412/3 454/408/3 451/406/3
f 459/414/3 458/413/3 457/412/3
f 460/415/3 458/413/3 459/414/3
f 461/416/3 457/412/3 443/402/3
f 462/417/3 458/413/3 460/415/3
f 463/418/3 464/419/3 461/416/3
f 463/418/3 458/413/3 462/417/3
f 463/418/3 462/417/3 464/419/3
f 465/420/3 458/413/3 463/418/3
f 466/421/3 458/413/3 465/420/3
f 467/422/3 458/413/3 466/421/3
f 468/423/3 461/416/3 443/402/3
f 468/423/3 463/418/3 461/416/3
f 469/424/3 463/418/3 468/423/3
f 470/425/3 463/418/3 469/424/3
f 471/426/3 466/421/3 465/420/3
f 472/427/3 466/421/3 471/426/3
f 477/428/3 478/429/3 479/430/3
f 480/431/3 468/423/3 481/432/3
f 480/431/3 469/424/3 468/423/3
f 482/433/3 469/424/3 480/431/3
f 483/434/3 469/424/3 482/433/3
f 484/435/3 485/436/3 477/428/3
f 484/435/3 477/428/3 479/430/3
f 486/437/3 485/436/3 484/435/3
f 487/438/3 482/433/3 480/431/3
f 487/438/3 480/431/3 488/439/3
f 489/440/3 482/433/3 487/438/3
f 490/441/3 491/442/3 492/443/3
f 493/444/3 491/442/3 490/441/3
f 494/445/3 490/441/3 495/446/3
f 494/445/3 496/447/3 493/444/3
f 494/445/3 493/444/3 490/441/3
f 497/448/3 496/447/3 494/445/3
f 498/449/3 499/450/3 497/451/3
f 500/452/3 499/450/3 498/449/3
f 501/453/3 502/454/3 503/455/3
f 504/456/3 502/454/3 501/453/3
f 505/457/3 506/458/3 507/459/3
f 508/460/3 506/458/3 505/457/3
f 509/461/3 510/462/3 511/463/3
f 512/464/3 510/462/3 509/461/3
f 513/465/3 514/466/3 515/467/3
f 516/468/3 514/466/3 513/465/3
f 517/469/3 518/470/3 519/471/3
f 520/472/3 518/470/3 517/469/3
f 521/473/3 517/474/3 522/475/3
f 523/476/3 517/474/3 521/473/3
f 524/477/3 517/474/3 523/476/3
f 525/478/3 517/474/3 524/477/3
f 526/479/3 524/477/3 523/476/3
f 527/480/3 524/477/3 526/479/3
f 528/481/3 529/482/3 530/483/3
f 531/484/3 529/482/3 528/481/3
f 532/485/3 533/486/3 534/487/3
f 535/488/3 533/486/3 532/485/3
f 536/489/3 537/490/3 535/491/3
f 538/492/3 537/490/3 536/489/3
f 539/493/3 540/494/3 541/495/3
f 542/496/3 540/494/3 539/493/3
f 543/497/3 544/498/3 545/499/3
f 546/500/3 544/498/3 543/497/3
f 550/501/3 539/502/3 548/503/3
f 551/504/3 539/502/3 550/501/3
f 552/505/3 553/506/3 551/507/3
f 554/508/3 553/506/3 552/505/3
f 555/509/3 556/510/3 557/511/3
f 558/512/3 556/510/3 555/509/3
f 566/513/3 555/514/3 564/515/3
f 567/516/3 555/514/3 566/513/3
f 568/517/3 569/518/3 570/519/3
f 571/520/3 569/518/3 568/517/3
f 572/521/3 573/522/3 567/523/3
f 574/524/3 573/522/3 572/521/3
f 575/525/3 576/526/3 577/527/3
f 578/528/3 576/526/3 575/525/3
f 579/529/3 580/530/3 581/531/3
f 582/532/3 580/530/3 579/529/3
f 583/533/3 575/534/3 584/535/3
f 585/536/3 575/534/3 583/533/3
f 586/537/3 587/538/3 588/539/3
f 589/540/3 587/538/3 586/537/3
f 590/541/3 591/542/3 592/543/3
f 593/544/3 591/542/3 590/541/3
f 594/545/3 595/546/3 596/547/3
f 597/548/3 595/546/3 594/545/3
f 598/549/4 599/550/4 600/551/4
f 600/551/4 599/550/4 601/552/4
f 601/552/4 599/550/4 602/553/4
f 602/554/4 603/555/4 604/556/4
f 604/556/4 603/555/4 605/557/4
f 606/558/4 607/559/4 608/560/4
f 608/560/4 607/559/4 609/561/4
f 610/562/4 611/563/4 612/564/4
f 612/564/4 611/563/4 613/565/4
f 615/566/4 608/567/4 617/568/4
f 617/568/4 608/567/4 618/569/4
f 613/570/4 619/571/4 620/572/4
f 620/572/4 619/571/4 621/573/4
f 618/574/4 622/575/4 623/576/4
f 623/576/4 622/575/4 624/577/4
f 625/578/4 626/579/4 627/580/4
f 627/580/4 626/579/4 628/581/4
f 632/582/4 630/583/4 633/584/4
f 633/584/4 630/583/4 634/585/4
f 636/586/4 627/587/4 638/588/4
f 638/588/4 627/587/4 639/589/4
f 640/590/4 633/591/4 641/592/4
f 641/592/4 633/591/4 642/593/4
f 639/594/4 643/595/4 644/596/4
f 644/596/4 643/595/4 645/597/4
f 646/598/4 647/599/4 648/600/4
f 648/600/4 647/599/4 649/601/4
f 650/602/4 651/603/4 652/604/4
f 651/603/4 648/605/4 652/604/4
f 652/604/4 648/605/4 653/606/4
f 654/607/4 655/608/4 656/609/4
f 656/609/4 655/608/4 657/610/4
f 657/611/4 658/612/4 659/613/4
f 659/613/4 658/612/4 660/614/4
f 661/615/4 662/616/4 663/617/4
f 663/617/4 662/616/4 664/618/4
f 661/615/4 663/617/4 669/619/4
f 669/619/4 663/617/4 670/620/4
f 671/621/4 672/622/4 673/623/4
f 673/623/4 674/624/4 675/625/4
f 671/621/4 673/623/4 675/625/4
f 675/625/4 674/624/4 676/626/4
f 671/621/4 675/625/4 677/627/4
f 677/627/4 675/625/4 678/628/4
f 683/629/4 684/630/4 685/631/4
f 685/631/4 684/630/4 686/632/4
f 687/633/4 688/634/4 689/635/4
f 689/635/4 688/634/4 690/636/4
f 691/637/4 689/638/4 692/639/4
f 692/639/4 689/638/4 693/640/4
f 694/641/4 695/642/4 696/643/4
f 696/643/4 695/642/4 697/644/4
f 697/644/4 695/642/4 698/645/4
f 699/646/4 700/647/4 701/648/4
f 701/648/4 700/647/4 702/649/4
f 698/645/4 703/650/4 704/651/4
f 697/644/4 698/645/4 704/651/4
f 704/651/4 703/650/4 705/652/4
f 705/652/4 703/650/4 706/653/4
f 707/654/4 708/655/4 709/656/4
f 709/656/4 708/655/4 710/657/4
f 711/658/4 706/653/4 712/659/4
f 706/653/4 703/650/4 713/660/4
f 712/659/4 706/653/4 713/660/4
f 713/660/4 703/650/4 714/661/4
f 710/662/4 712/659/4 715/663/4
f 712/659/4 713/660/4 715/663/4
f 715/663/4 713/660/4 716/664/4
f 717/665/4 718/666/4 719/667/4
f 719/667/4 718/666/4 720/668/4
f 720/668/4 718/666/4 721/669/4
f 721/669/4 718/666/4 722/670/4
f 723/671/4 724/672/4 725/673/4
f 725/673/4 724/672/4 726/674/4
f 727/675/4 728/676/4 729/677/4
f 729/677/4 728/676/4 730/678/4
f 722/679/4 731/680/4 732/681/4
f 732/681/4 731/680/4 733/682/4
f 734/683/4 732/684/4 735/685/4
f 735/685/4 732/684/4 736/686/4
f 737/687/4 738/688/4 739/689/4
f 739/689/4 738/688/4 740/690/4
f 740/690/4 738/688/4 741/691/4
f 741/691/4 742/692/4 743/693/4
f 740/690/4 741/691/4 743/693/4
f 743/693/4 742/692/4 744/694/4
f 744/694/4 742/692/4 745/695/4
f 746/696/4 747/697/4 748/698/4
f 748/698/4 747/697/4 749/699/4
f 745/695/4 750/700/4 751/701/4
f 744/694/4 745/695/4 751/701/4
f 751/701/4 750/700/4 752/702/4
f 752/702/4 750/700/4 753/703/4
f 754/704/4 751/701/4 755/705/4
f 751/701/4 752/702/4 755/705/4
f 755/705/4 752/702/4 756/706/4
f 757/707/4 758/708/4 759/709/4
f 759/709/4 758/708/4 760/710/4
f 760/710/4 758/708/4 761/711/4
f 761/711/4 762/712/4 763/713/4
f 760/710/4 761/711/4 763/713/4
f 763/713/4 762/712/4 764/714/4
f 764/714/4 762/712/4 765/715/4
f 766/716/4 765/715/4 767/717/4
f 765/715/4 762/712/4 768/718/4
f 767/717/4 765/715/4 768/718/4
f 768/718/4 762/712/4 769/719/4
f 770/720/4 767/717/4 771/721/4
f 767/717/4 768/718/4 771/721/4
f 771/721/4 768/718/4 772/722/4
f 773/723/4 774/724/4 775/725/4
f 775/725/4 774/724/4 776/726/4
f 776/726/4 774/724/4 777/727/4
f 777/727/4 778/728/4 779/729/4
f 776/726/4 777/727/4 779/729/4
f 779/729/4 778/728/4 780/730/4
f 780/730/4 778/728/4 781/731/4
f 782/732/4 781/731/4 783/733/4
f 781/731/4 778/728/4 784/734/4
f 783/733/4 781/731/4 784/734/4
f 784/734/4 778/728/4 785/735/4
f 786/736/4 783/733/4 787/737/4
f 783/733/4 784/734/4 787/737/4
f 787/737/4 784/734/4 788/738/4
f 789/739/4 790/740/4 791/741/4
f 789/739/4 791/741/4 792/742/4
f 791/741/4 793/743/4 792/742/4
f 792/742/4 793/743/4 794/744/4
f 789/739/4 792/742/4 795/745/4
f 795/745/4 792/742/4 796/746/4
f 805/747/5 806/748/5 807/749/5
f 808/750/5 806/748/5 805/747/5
f 809/751/5 810/752/5 811/753/5
f 812/754/5 810/752/5 809/751/5
f 813/755/5 805/756/5 814/757/5
f 815/758/5 805/756/5 813/755/5
f 816/759/5 817/760/5 808/761/5
f 818/762/5 817/760/5 816/759/5
f 819/763/5 809/764/5 820/765/5
f 821/766/5 809/764/5 819/763/5
f 822/767/5 823/768/5 812/769/5
f 824/770/5 823/768/5 822/767/5
f 825/771/5 816/772/5 815/773/5
f 826/774/5 816/772/5 825/771/5
f 827/775/5 822/776/5 821/777/5
f 828/778/5 822/776/5 827/775/5
f 829/779/5 830/780/5 831/781/5
f 832/782/5 830/780/5 829/779/5
f 833/783/5 834/784/5 835/785/5
f 836/786/5 834/784/5 833/783/5
f 837/787/5 838/788/5 839/789/5
f 837/787/5 840/790/5 841/791/5
f 837/787/5 841/791/5 838/788/5
f 842/792/5 840/790/5 837/787/5
f 843/793/5 840/790/5 842/792/5
f 844/794/5 840/790/5 843/793/5
f 845/795/5 843/793/5 842/792/5
f 846/796/5 843/793/5 845/795/5
f 847/797/5 843/793/5 846/796/5
f 848/798/5 843/793/5 847/797/5
f 849/799/5 847/797/5 846/796/5
f 850/800/5 847/797/5 849/799/5
f 851/801/5 852/802/5 853/803/5
f 854/804/5 852/802/5 851/801/5
f 855/805/5 851/801/5 856/806/5
f 855/805/5 857/807/5 854/804/5
f 855/805/5 854/804/5 851/801/5
f 858/808/5 857/807/5 855/805/5
f 859/809/5 857/807/5 858/808/5
f 860/810/5 857/807/5 859/809/5
f 861/811/5 857/807/5 860/810/5
f 862/812/5 857/807/5 861/811/5
f 863/813/5 855/805/5 864/814/5
f 863/813/5 858/808/5 855/805/5
f 865/815/5 858/808/5 863/813/5
f 866/816/5 858/808/5 865/815/5
f 867/817/5 860/810/5 859/809/5
f 868/818/5 860/810/5 867/817/5
f 869/819/5 860/810/5 868/818/5
f 870/820/5 860/810/5 869/819/5
f 871/821/5 862/812/5 861/811/5
f 871/821/5 872/822/5 862/812/5
f 873/823/5 872/822/5 871/821/5
f 874/824/5 872/822/5 873/823/5
f 875/825/5 863/813/5 876/826/5
f 875/825/5 865/815/5 863/813/5
f 877/827/5 865/815/5 875/825/5
f 878/828/5 879/829/5 874/824/5
f 878/828/5 874/824/5 873/823/5
f 880/830/5 879/829/5 878/828/5
f 881/831/5 865/815/5 877/827/5
f 882/832/5 865/815/5 881/831/5
f 883/833/5 869/819/5 868/818/5
f 884/834/5 869/819/5 883/833/5
f 885/835/5 878/828/5 873/823/5
f 886/836/5 878/828/5 885/835/5
f 887/837/5 888/838/5 882/832/5
f 887/837/5 882/832/5 881/831/5
f 889/839/5 888/838/5 887/837/5
f 890/840/5 888/838/5 889/839/5
f 891/841/5 892/842/5 884/834/5
f 891/841/5 883/833/5 893/843/5
f 891/841/5 884/834/5 883/833/5
f 894/844/5 892/842/5 891/841/5
f 895/845/5 886/836/5 885/835/5
f 895/845/5 885/835/5 896/846/5
f 897/847/5 886/836/5 895/845/5
f 898/848/5 899/849/5 890/840/5
f 898/848/5 890/840/5 889/839/5
f 900/850/5 899/849/5 898/848/5
f 901/851/5 899/849/5 900/850/5
f 902/852/5 895/845/5 896/846/5
f 903/853/5 895/845/5 902/852/5
f 904/854/5 905/855/5 901/851/5
f 904/854/5 901/851/5 900/850/5
f 906/856/5 902/852/5 907/857/5
f 908/858/5 909/859/5 904/854/5
f 908/858/5 904/854/5 900/850/5
f 910/860/5 909/859/5 908/858/5
f 911/861/5 909/859/5 910/860/5
f 912/862/5 906/856/5 913/863/5
f 914/864/5 911/861/5 910/860/5
f 914/864/5 912/862/5 911/861/5
f 915/865/5 912/862/5 914/864/5
f 916/866/5 906/856/5 912/862/5
f 916/866/5 912/862/5 915/865/5
f 916/866/5 902/852/5 906/856/5
f 917/867/5 902/852/5 916/866/5
f 918/868/5 916/866/5 915/865/5
f 919/869/5 916/866/5 918/868/5
f 920/870/5 916/866/5 919/869/5
f 921/871/5 916/866/5 920/870/5
f 922/872/5 920/870/5 919/869/5
f 923/873/5 920/870/5 922/872/5
f 924/874/5 925/875/5 926/876/5
f 927/877/5 925/875/5 924/874/5
f 928/878/5 929/879/5 930/880/5
f 931/881/5 929/879/5 928/878/5
f 932/882/5 933/883/5 934/884/5
f 935/885/5 933/883/5 932/882/5
f 936/886/5 937/887/5 938/888/5
f 939/889/5 937/887/5 936/886/5
f 940/890/5 941/891/5 942/892/5
f 943/893/5 941/891/5 940/890/5
f 944/894/5 945/895/5 946/896/5
f 947/897/5 945/895/5 944/894/5
f 976/898/6 977/899/6 978/900/6
f 978/900/6 977/899/6 979/901/6
f 980/902/6 981/903/6 982/904/6
f 982/904/6 981/903/6 983/905/6
f 984/906/6 985/907/6 986/908/6
f 986/908/6 985/907/6 987/909/6
f 988/910/6 989/911/6 990/912/6
f 990/912/6 989/911/6 991/913/6
f 992/914/6 993/915/6 994/916/6
f 994/916/6 993/915/6 995/917/6
f 996/918/6 997/919/6 998/920/6
f 998/920/6 997/919/6 999/921/6
f 1000/922/6 1001/923/6 1002/924/6
f 1002/924/6 1001/923/6 1003/925/6
f 1004/926/6 1005/927/6 1006/928/6
f 1006/928/6 1005/927/6 1007/929/6
f 1008/930/6 1009/931/6 1010/932/6
f 1010/932/6 1009/931/6 1011/933/6
f 1012/934/6 1013/935/6 1014/936/6
f 1014/936/6 1013/935/6 1015/937/6
f 1016/938/6 1017/939/6 1018/940/6
f 1018/940/6 1017/939/6 1019/941/6
f 1020/942/6 1021/943/6 1022/944/6
f 1022/944/6 1021/943/6 1023/945/6
f 1024/946/6 1025/947/6 1026/948/6
f 1026/948/6 1025/947/6 1027/949/6
f 1028/950/6 1029/951/6 1030/952/6
f 1030/952/6 1029/951/6 1031/953/6
f 1032/954/6 1033/955/6 1034/956/6
f 1034/956/6 1033/955/6 1035/957/6
f 1036/958/6 1037/959/6 1038/960/6
f 1038/960/6 1037/959/6 1039/961/6
f 1040/962/6 1041/963/6 1042/964/6
f 1042/964/6 1041/963/6 1043/965/6
f 1044/966/6 1045/967/6 1046/968/6
f 1046/968/6 1045/967/6 1047/969/6
f 1048/970/6 1049/971/6 1050/972/6
f 1050/972/6 1049/971/6 1051/973/6
f 1052/974/6 1053/975/6 1054/976/6
f 1054/976/6 1053/975/6 1055/977/6
f 1056/978/6 1057/979/6 1058/980/6
f 1058/980/6 1057/979/6 1059/981/6
f 1055/982/6 1058/983/6 1060/984/6
f 1060/984/6 1058/983/6 1061/985/6
f 1062/986/6 1063/987/6 1064/988/6
f 1064/988/6 1063/987/6 1065/989/6
f 1066/990/6 1067/991/6 1068/992/6
f 1068/992/6 1067/991/6 1069/993/6
f 1070/994/6 1064/995/6 1071/996/6
f 1071/996/6 1064/995/6 1072/997/6
f 1069/998/6 1073/999/6 1074/1000/6
f 1074/1000/6 1073/999/6 1075/1001/6
f 1076/1002/6 1071/1003/6 1077/1004/6
f 1077/1004/6 1071/1003/6 1078/1005/6
f 1075/1006/6 1079/1007/6 1080/1008/6
f 1080/1008/6 1079/1007/6 1081/1009/6
f 1078/1010/6 1082/1011/6 1083/1012/6
f 1083/1012/6 1082/1011/6 1084/1013/6
f 1085/1014/6 1080/1015/6 1086/1016/6
f 1086/1016/6 1080/1015/6 1087/1017/6
f 1084/1018/6 1088/1019/6 1089/1020/6
f 1089/1020/6 1088/1019/6 1090/1021/6
f 1091/1022/6 1086/1023/6 1092/1024/6
f 1092/1024/6 1086/1023/6 1093/1025/6
f 1094/1026/6 1095/1027/6 1096/1028/6
f 1096/1028/6 1095/1027/6 1097/1029/6
f 1098/1030/6 1099/1031/6 1100/1032/6
f 1101/1033/6 1102/1034/6 1103/1035/6
f 1104/1036/6 1100/1032/6 1105/1037/6
f 1100/1032/6 1099/1031/6 1106/1038/6
f 1105/1037/6 1100/1032/6 1106/1038/6
f 1106/1038/6 1099/1031/6 1107/1039/6
f 1103/1035/6 1108/1040/6 1109/1041/6
f 1101/1033/6 1103/1035/6 1109/1041/6
f 1109/1041/6 1108/1040/6 1110/1042/6
f 1110/1042/6 1108/1040/6 1111/1043/6
f 1112/1044/6 1105/1037/6 1113/1045/6
f 1105/1037/6 1106/1038/6 1113/1045/6
f 1113/1045/6 1106/1038/6 1114/1046/6
f 1114/1046/6 1106/1038/6 1115/1047/6
f 1111/1043/6 1116/1048/6 1117/1049/6
f 1110/1042/6 1111/1043/6 1117/1049/6
f 1117/1049/6 1116/1048/6 1118/1050/6
f 1118/1050/6 1116/1048/6 1119/1051/6
f 1115/1047/6 1120/1052/6 1121/1053/6
f 1114/1046/6 1115/1047/6 1121/1053/6
f 1121/1053/6 1120/1052/6 1122/1054/6
f 1122/1054/6 1120/1052/6 1123/1055/6
f 1117/1049/6 1118/1050/6 1124/1056/6
f 1125/1057/6 1117/1049/6 1124/1056/6
f 1124/1056/6 1118/1050/6 1126/1058/6
f 1126/1058/6 1118/1050/6 1127/1059/6
f 1122/1054/6 1123/1055/6 1128/1060/6
f 1124/1056/6 1126/1058/6 1128/1060/6
f 1123/1055/6 1124/1056/6 1128/1060/6
f 1128/1060/6 1126/1058/6 1129/1061/6
f 1134/1062/6 1135/1063/6 1136/1064/6
f 1136/1064/6 1135/1063/6 1137/1065/6
f 1138/1066/6 1139/1067/6 1140/1068/6
f 1140/1068/6 1139/1067/6 1141/1069/6
f 1142/1070/6 1143/1071/6 1144/1072/6
f 1144/1072/6 1143/1071/6 1145/1073/6
f 1146/1074/6 1147/1075/6 1148/1076/6
f 1148/1076/6 1147/1075/6 1149/1077/6
f 1145/1078/6 1150/1079/6 1151/1080/6
f 1151/1080/6 1150/1079/6 1152/1081/6
f 1153/1082/6 1148/1083/6 1154/1084/6
f 1154/1084/6 1148/1083/6 1155/1085/6
f 1156/1086/6 1157/1087/6 1158/1088/6
f 1158/1088/6 1157/1087/6 1159/1089/6
f 1160/1090/6 1158/1088/6 1161/1091/6
f 1159/1089/6 1162/1092/6 1161/1091/6
f 1158/1088/6 1159/1089/6 1161/1091/6
f 1161/1091/6 1162/1092/6 1163/1093/6
f 1160/1090/6 1161/1091/6 1164/1094/6
f 1164/1094/6 1161/1091/6 1165/1095/6
f 1163/1093/6 1162/1092/6 1166/1096/6
f 1166/1096/6 1162/1092/6 1167/1097/6
f 1165/1098/6 1166/1099/6 1168/1100/6
f 1168/1100/6 1166/1099/6 1169/1101/6
f 151/1102/1 147/1103/1 152/1104/1
f 153/1105/1 147/1103/1 151/1102/1
f 166/1106/1 167/1107/1 168/1108/1
f 171/1109/1 167/1107/1 166/1106/1
f 172/1110/1 167/1107/1 171/1109/1
f 234/1111/2 235/1112/2 236/1113/2
f 236/1113/2 235/1112/2 239/1114/2
f 239/1114/2 235/1112/2 240/1115/2
f 268/1116/2 266/1117/2 269/1118/2
f 269/1118/2 266/1117/2 270/1119/2
f 417/1120/3 418/1121/3 419/1122/3
f 420/1123/3 418/1121/3 417/1120/3
f 559/1124/3 560/1125/3 561/1126/3
f 562/1127/3 560/1125/3 559/1124/3
f 621/1128/4 629/1129/4 630/1130/4
f 630/1130/4 629/1129/4 631/1131/4
f 948/1132/5 949/1133/5 950/1134/5
f 951/1135/5 949/1133/5 948/1132/5
f 1170/1136/6 1171/1137/6 1172/1138/6
f 1172/1138/6 1171/1137/6 1173/1139/6
f 451/406/3 452/410/3 453/407/3
f 454/408/3 452/410/3 451/406/3
f 470/425/3 465/420/3 463/418/3
f 471/426/3 465/420/3 470/425/3
f 47/1140/1 48/1141/1 49/1142/1
f 50/1143/1 48/1141/1 47/1140/1
f 51/1144/1 48/1141/1 50/1143/1
f 52/1145/1 48/1141/1 51/1144/1
f 53/53/1 51/1144/1 50/1143/1
f 54/52/1 51/1144/1 53/53/1
f 169/1146/1 166/1106/1 170/1147/1
f 171/1109/1 166/1106/1 169/1146/1
f 173/1148/1 169/1146/1 174/1149/1
f 173/1148/1 171/1109/1 169/1146/1
f 173/1148/1 172/1110/1 171/1109/1
f 175/1150/1 172/1110/1 173/1148/1
f 184/1151/1 185/1152/1 186/1153/1
f 187/1154/1 185/1152/1 184/1151/1
f 188/1155/1 185/1152/1 187/1154/1
f 189/1156/1 185/1152/1 188/1155/1
f 190/175/1 188/1155/1 187/1154/1
f 191/174/1 188/1155/1 190/175/1
f 209/1157/2 210/1158/2 211/1159/2
f 211/1159/2 210/1158/2 212/1160/2
f 212/1160/2 210/1158/2 213/1161/2
f 213/1161/2 210/1158/2 214/1162/2
f 212/1160/2 213/1161/2 215/194/2
f 215/194/2 213/1161/2 216/195/2
f 237/1163/2 236/1113/2 238/1164/2
f 238/1164/2 236/1113/2 239/1114/2
f 241/1165/2 238/1164/2 242/1166/2
f 238/1164/2 239/1114/2 242/1166/2
f 239/1114/2 240/1115/2 242/1166/2
f 242/1166/2 240/1115/2 243/1167/2
f 309/1168/2 310/1169/2 311/1170/2
f 311/1170/2 310/1169/2 312/1171/2
f 312/1171/2 310/1169/2 313/1172/2
f 313/1172/2 310/1169/2 314/1173/2
f 312/1171/2 313/1172/2 315/279/2
f 315/279/2 313/1172/2 316/280/2
f 400/1174/3 401/1175/3 402/1176/3
f 403/1177/3 401/1175/3 400/1174/3
f 404/1178/3 405/1179/3 406/1180/3
f 407/1181/3 405/1179/3 404/1178/3
f 445/1182/3 446/1183/3 447/1184/3
f 448/1185/3 446/1183/3 445/1182/3
f 473/1186/3 474/1187/3 475/1188/3
f 476/1189/3 474/1187/3 473/1186/3
f 547/1190/3 548/503/3 549/1191/3
f 550/501/3 548/503/3 547/1190/3
f 563/1192/3 564/515/3 565/1193/3
f 566/513/3 564/515/3 563/1192/3
f 614/1194/4 615/566/4 616/1195/4
f 616/1195/4 615/566/4 617/568/4
f 635/1196/4 636/586/4 637/1197/4
f 637/1197/4 636/586/4 638/588/4
f 665/1198/4 666/1199/4 667/1200/4
f 667/1200/4 666/1199/4 668/1201/4
f 679/1202/4 680/1203/4 681/1204/4
f 681/1204/4 680/1203/4 682/1205/4
f 797/1206/5 798/1207/5 799/1208/5
f 800/1209/5 798/1207/5 797/1206/5
f 801/1210/5 802/1211/5 803/1212/5
f 804/1213/5 802/1211/5 801/1210/5
f 952/1214/5 953/1215/5 954/1216/5
f 955/1217/5 953/1215/5 952/1214/5
f 956/1218/5 957/1219/5 958/1220/5
f 959/1221/5 957/1219/5 956/1218/5
f 960/1222/6 961/1223/6 962/1224/6
f 962/1224/6 961/1223/6 963/1225/6
f 964/1226/6 965/1227/6 966/1228/6
f 966/1228/6 965/1227/6 967/1229/6
f 968/1230/6 969/1231/6 970/1232/6
f 970/1232/6 969/1231/6 971/1233/6
f 972/1234/6 973/1235/6 974/1236/6
f 974/1236/6 973/1235/6 975/1237/6
f 1130/1238/6 1131/1239/6 1132/1240/6
f 1132/1240/6 1131/1239/6 1133/1241/6
