# Blender v2.79 (sub 0) OBJ File: 'assets.blend'
# www.blender.org
v 0.119120 0.285886 0.176806
v -0.261120 0.260537 0.176806
v 0.119120 0.260537 0.176806
v 0.093771 0.285886 0.176806
v 0.017723 0.285886 0.176806
v -0.058325 0.285886 0.176806
v 0.093771 0.311236 0.176806
v 0.068422 0.311236 0.176806
v 0.017723 0.311236 0.176806
v -0.007626 0.311236 0.176806
v -0.032976 0.311236 0.176806
v -0.058325 0.311236 0.176806
v -0.235770 0.311236 0.176806
v -0.261120 0.311236 0.176806
v 0.068422 0.336585 0.176806
v 0.043072 0.336585 0.176806
v -0.007626 0.336585 0.176806
v -0.032976 0.336585 0.176806
v -0.083674 0.336585 0.176806
v -0.185072 0.336585 0.176806
v 0.043072 0.361934 0.176806
v -0.083674 0.361934 0.176806
v -0.185072 0.361934 0.176806
v -0.235770 0.361934 0.176806
v 0.144470 0.285886 0.126107
v 0.119120 0.260537 0.126107
v 0.144470 0.260537 0.126107
v 0.119120 0.285886 0.126107
v 0.043072 0.412633 0.126107
v -0.109024 0.361934 0.126107
v 0.043072 0.361934 0.126107
v -0.109024 0.412633 0.126107
v 0.144470 0.260537 0.100758
v -0.185072 0.235188 0.100758
v 0.144470 0.235188 0.100758
v 0.119120 0.260537 0.100758
v -0.185072 0.260537 0.100758
v 0.043072 0.361934 0.100758
v -0.159722 0.336585 0.100758
v 0.068422 0.336585 0.100758
v -0.109024 0.361934 0.100758
v -0.134373 0.387284 0.100758
v -0.159722 0.387284 0.100758
v 0.043072 0.412633 0.100758
v -0.109024 0.412633 0.100758
v 0.068422 0.437982 0.100758
v -0.134373 0.437982 0.100758
v -0.159722 0.361934 0.075409
v -0.185072 0.285886 0.075409
v -0.159722 0.285886 0.075409
v -0.210421 0.285886 0.075409
v -0.210421 0.361934 0.075409
v 0.093771 0.412633 0.075409
v 0.068422 0.336585 0.075409
v 0.093771 0.336585 0.075409
v 0.068422 0.412633 0.075409
v 0.043072 0.463332 0.075409
v -0.109024 0.437982 0.075409
v 0.043072 0.437982 0.075409
v 0.017723 0.463332 0.075409
v -0.058325 0.463332 0.075409
v -0.109024 0.463332 0.075409
v 0.017723 0.488681 0.075409
v -0.058325 0.488681 0.075409
v 0.119120 0.412633 0.050059
v 0.093771 0.336585 0.050059
v 0.119120 0.336585 0.050059
v 0.093771 0.412633 0.050059
v -0.058325 0.488681 0.050059
v -0.083674 0.463332 0.050059
v -0.058325 0.463332 0.050059
v -0.007626 0.514030 0.050059
v -0.007626 0.488681 0.050059
v -0.032976 0.514030 0.050059
v -0.007626 0.539380 0.050059
v -0.032976 0.539380 0.050059
v -0.007626 0.564729 0.050059
v -0.083674 0.564729 0.050059
v 0.600757 0.361934 0.024710
v 0.195168 0.336585 0.024710
v 0.600757 0.336585 0.024710
v 0.195168 0.361934 0.024710
v 0.119120 0.336585 0.024710
v 0.119120 0.361934 0.024710
v 0.600757 0.387284 0.024710
v 0.119120 0.387284 0.024710
v 0.017723 0.514030 0.024710
v -0.007626 0.488681 0.024710
v 0.017723 0.488681 0.024710
v -0.007626 0.514030 0.024710
v 0.017723 0.488681 -0.051338
v -0.007626 0.463332 -0.051338
v 0.017723 0.463332 -0.051338
v -0.007626 0.488681 -0.051338
v -0.159722 0.285886 -0.076687
v -0.185072 0.235188 -0.076687
v -0.159722 0.235188 -0.076687
v -0.185072 0.285886 -0.076687
v 0.144470 0.285886 -0.102037
v 0.119120 0.260537 -0.102037
v 0.144470 0.260537 -0.102037
v 0.119120 0.285886 -0.102037
v -0.185072 0.285886 -0.102037
v -0.261120 0.260537 -0.102037
v -0.185072 0.260537 -0.102037
v -0.235770 0.311236 -0.102037
v -0.159722 0.285886 -0.102037
v -0.261120 0.311236 -0.102037
v -0.159722 0.336585 -0.102037
v -0.185072 0.336585 -0.102037
v -0.185072 0.361934 -0.102037
v -0.235770 0.361934 -0.102037
v 0.043072 0.361934 -0.152735
v -0.083674 0.336585 -0.152735
v 0.043072 0.336585 -0.152735
v -0.083674 0.361934 -0.152735
v 0.043072 0.336585 0.151457
v -0.083674 0.336585 0.151457
v 0.043072 0.361934 0.151457
v -0.083674 0.361934 0.151457
v 0.144470 0.260537 0.100758
v 0.119120 0.260537 0.100758
v 0.144470 0.285886 0.100758
v 0.119120 0.285886 0.100758
v -0.185072 0.260537 0.100758
v -0.261120 0.260537 0.100758
v -0.185072 0.285886 0.100758
v -0.235770 0.285886 0.100758
v -0.159722 0.285886 0.100758
v -0.159722 0.311236 0.100758
v -0.185072 0.311236 0.100758
v -0.210421 0.311236 0.100758
v -0.235770 0.311236 0.100758
v -0.261120 0.311236 0.100758
v -0.159722 0.336585 0.100758
v -0.185072 0.336585 0.100758
v -0.210421 0.336585 0.100758
v -0.185072 0.361934 0.100758
v -0.235770 0.361934 0.100758
v -0.159722 0.235188 0.075409
v -0.185072 0.235188 0.075409
v -0.159722 0.285886 0.075409
v -0.185072 0.285886 0.075409
v 0.017723 0.463332 0.050059
v -0.007626 0.463332 0.050059
v 0.017723 0.488681 0.050059
v -0.007626 0.488681 0.050059
v 0.600757 0.336585 -0.025989
v 0.195168 0.336585 -0.025989
v 0.600757 0.361934 -0.025989
v 0.119120 0.336585 -0.025989
v 0.195168 0.361934 -0.025989
v 0.119120 0.361934 -0.025989
v 0.600757 0.387284 -0.025989
v 0.119120 0.387284 -0.025989
v 0.017723 0.488681 -0.025989
v -0.007626 0.488681 -0.025989
v 0.017723 0.514030 -0.025989
v -0.007626 0.514030 -0.025989
v 0.119120 0.336585 -0.051338
v 0.093771 0.336585 -0.051338
v 0.119120 0.412633 -0.051338
v 0.093771 0.412633 -0.051338
v -0.058325 0.463332 -0.051338
v -0.083674 0.463332 -0.051338
v -0.058325 0.488681 -0.051338
v -0.007626 0.488681 -0.051338
v -0.007626 0.514030 -0.051338
v -0.032976 0.514030 -0.051338
v -0.007626 0.539380 -0.051338
v -0.032976 0.539380 -0.051338
v -0.007626 0.564729 -0.051338
v -0.083674 0.564729 -0.051338
v -0.159722 0.285886 -0.076687
v -0.185072 0.285886 -0.076687
v -0.159722 0.361934 -0.076687
v -0.210421 0.285886 -0.076687
v -0.210421 0.361934 -0.076687
v 0.093771 0.336585 -0.076687
v 0.068422 0.336585 -0.076687
v 0.093771 0.412633 -0.076687
v 0.068422 0.412633 -0.076687
v 0.043072 0.437982 -0.076687
v -0.109024 0.437982 -0.076687
v 0.043072 0.463332 -0.076687
v 0.017723 0.463332 -0.076687
v -0.058325 0.463332 -0.076687
v -0.109024 0.463332 -0.076687
v 0.017723 0.488681 -0.076687
v -0.058325 0.488681 -0.076687
v 0.144470 0.235188 -0.102037
v -0.185072 0.235188 -0.102037
v 0.144470 0.260537 -0.102037
v 0.119120 0.260537 -0.102037
v -0.185072 0.260537 -0.102037
v 0.068422 0.336585 -0.102037
v -0.159722 0.336585 -0.102037
v 0.043072 0.361934 -0.102037
v -0.109024 0.361934 -0.102037
v -0.134373 0.387284 -0.102037
v -0.159722 0.387284 -0.102037
v 0.043072 0.412633 -0.102037
v -0.109024 0.412633 -0.102037
v 0.068422 0.437982 -0.102037
v -0.134373 0.437982 -0.102037
v 0.144470 0.260537 -0.127386
v 0.119120 0.260537 -0.127386
v 0.144470 0.285886 -0.127386
v 0.119120 0.285886 -0.127386
v 0.043072 0.361934 -0.127386
v -0.109024 0.361934 -0.127386
v 0.043072 0.412633 -0.127386
v -0.109024 0.412633 -0.127386
v 0.119120 0.260537 -0.178085
v -0.261120 0.260537 -0.178085
v 0.119120 0.285886 -0.178085
v 0.093771 0.285886 -0.178085
v 0.093771 0.311236 -0.178085
v 0.068422 0.311236 -0.178085
v -0.235770 0.311236 -0.178085
v -0.261120 0.311236 -0.178085
v 0.068422 0.336585 -0.178085
v 0.043072 0.336585 -0.178085
v -0.083674 0.336585 -0.178085
v -0.185072 0.336585 -0.178085
v 0.043072 0.361934 -0.178085
v -0.083674 0.361934 -0.178085
v -0.185072 0.361934 -0.178085
v -0.235770 0.361934 -0.178085
v 0.600757 0.336585 -0.025989
v 0.600757 0.361934 0.024710
v 0.600757 0.336585 0.024710
v 0.600757 0.361934 -0.025989
v 0.600757 0.387284 0.024710
v 0.600757 0.387284 -0.025989
v 0.144470 0.260537 0.100758
v 0.144470 0.285886 0.126107
v 0.144470 0.260537 0.126107
v 0.144470 0.285886 0.100758
v 0.144470 0.235188 -0.102037
v 0.144470 0.235188 0.100758
v 0.144470 0.260537 -0.102037
v 0.144470 0.260537 -0.127386
v 0.144470 0.285886 -0.102037
v 0.144470 0.285886 -0.127386
v 0.119120 0.260537 0.126107
v 0.119120 0.285886 0.176806
v 0.119120 0.260537 0.176806
v 0.119120 0.285886 0.126107
v 0.119120 0.336585 0.024710
v 0.119120 0.412633 0.050059
v 0.119120 0.336585 0.050059
v 0.119120 0.361934 0.024710
v 0.119120 0.387284 0.024710
v 0.119120 0.387284 -0.025989
v 0.119120 0.336585 -0.051338
v 0.119120 0.361934 -0.025989
v 0.119120 0.336585 -0.025989
v 0.119120 0.412633 -0.051338
v 0.119120 0.260537 -0.102037
v 0.119120 0.285886 0.100758
v 0.119120 0.260537 0.100758
v 0.119120 0.285886 -0.102037
v 0.119120 0.260537 -0.178085
v 0.119120 0.285886 -0.127386
v 0.119120 0.260537 -0.127386
v 0.119120 0.285886 -0.178085
v 0.093771 0.336585 0.050059
v 0.093771 0.412633 0.075409
v 0.093771 0.336585 0.075409
v 0.093771 0.412633 0.050059
v 0.093771 0.336585 -0.076687
v 0.093771 0.412633 -0.051338
v 0.093771 0.336585 -0.051338
v 0.093771 0.412633 -0.076687
v 0.093771 0.285886 -0.178085
v 0.093771 0.311236 0.176806
v 0.093771 0.285886 0.176806
v 0.093771 0.311236 -0.178085
v 0.068422 0.336585 0.100758
v 0.068422 0.336585 0.176806
v 0.068422 0.311236 0.176806
v 0.068422 0.336585 0.075409
v 0.068422 0.437982 0.100758
v 0.068422 0.412633 0.075409
v 0.068422 0.336585 0.050059
v 0.068422 0.336585 -0.025989
v 0.068422 0.336585 -0.076687
v 0.068422 0.412633 -0.076687
v 0.068422 0.336585 -0.102037
v 0.068422 0.437982 -0.102037
v 0.068422 0.311236 -0.178085
v 0.068422 0.336585 -0.178085
v 0.043072 0.336585 0.151457
v 0.043072 0.361934 0.176806
v 0.043072 0.336585 0.176806
v 0.043072 0.361934 0.151457
v 0.043072 0.361934 0.100758
v 0.043072 0.412633 0.126107
v 0.043072 0.361934 0.126107
v 0.043072 0.412633 0.100758
v 0.043072 0.437982 -0.076687
v 0.043072 0.463332 0.075409
v 0.043072 0.437982 0.075409
v 0.043072 0.463332 -0.076687
v 0.043072 0.361934 -0.127386
v 0.043072 0.412633 -0.102037
v 0.043072 0.361934 -0.102037
v 0.043072 0.412633 -0.127386
v 0.043072 0.336585 -0.178085
v 0.043072 0.361934 -0.152735
v 0.043072 0.336585 -0.152735
v 0.043072 0.361934 -0.178085
v 0.017723 0.463332 0.050059
v 0.017723 0.488681 0.075409
v 0.017723 0.463332 0.075409
v 0.017723 0.488681 0.050059
v 0.017723 0.488681 -0.025989
v 0.017723 0.514030 0.024710
v 0.017723 0.488681 0.024710
v 0.017723 0.514030 -0.025989
v 0.017723 0.463332 -0.076687
v 0.017723 0.488681 -0.051338
v 0.017723 0.463332 -0.051338
v 0.017723 0.488681 -0.076687
v -0.007626 0.488681 0.024710
v -0.007626 0.488681 0.050059
v -0.007626 0.463332 0.050059
v -0.007626 0.514030 0.050059
v -0.007626 0.514030 0.024710
v -0.007626 0.539380 0.050059
v -0.007626 0.539380 0.024710
v -0.007626 0.564729 0.050059
v -0.007626 0.488681 -0.025989
v -0.007626 0.514030 -0.025989
v -0.007626 0.539380 -0.025989
v -0.007626 0.463332 -0.051338
v -0.007626 0.488681 -0.051338
v -0.007626 0.514030 -0.051338
v -0.007626 0.539380 -0.051338
v -0.007626 0.564729 -0.051338
v -0.185072 0.336585 0.100758
v -0.185072 0.361934 0.176806
v -0.185072 0.336585 0.176806
v -0.185072 0.361934 0.100758
v -0.185072 0.336585 -0.178085
v -0.185072 0.361934 -0.102037
v -0.185072 0.336585 -0.102037
v -0.185072 0.361934 -0.178085
v -0.058325 0.463332 0.075409
v -0.058325 0.488681 0.075409
v -0.058325 0.463332 0.050059
v -0.058325 0.488681 0.050059
v -0.058325 0.463332 -0.051338
v -0.058325 0.488681 -0.051338
v -0.058325 0.463332 -0.076687
v -0.058325 0.488681 -0.076687
v -0.083674 0.336585 0.176806
v -0.083674 0.361934 0.176806
v -0.083674 0.336585 0.151457
v -0.083674 0.361934 0.151457
v -0.083674 0.463332 0.050059
v -0.083674 0.564729 0.050059
v -0.083674 0.463332 -0.051338
v -0.083674 0.564729 -0.051338
v -0.083674 0.336585 -0.152735
v -0.083674 0.361934 -0.152735
v -0.083674 0.336585 -0.178085
v -0.083674 0.361934 -0.178085
v -0.109024 0.361934 0.126107
v -0.109024 0.412633 0.126107
v -0.109024 0.361934 0.100758
v -0.109024 0.412633 0.100758
v -0.109024 0.437982 0.075409
v -0.109024 0.463332 0.075409
v -0.109024 0.437982 -0.076687
v -0.109024 0.463332 -0.076687
v -0.109024 0.361934 -0.102037
v -0.109024 0.412633 -0.102037
v -0.109024 0.361934 -0.127386
v -0.109024 0.412633 -0.127386
v -0.134373 0.387284 0.100758
v -0.134373 0.437982 0.100758
v -0.134373 0.387284 -0.102037
v -0.134373 0.437982 -0.102037
v -0.159722 0.285886 0.100758
v -0.159722 0.311236 0.100758
v -0.159722 0.285886 0.075409
v -0.159722 0.336585 0.100758
v -0.159722 0.387284 0.100758
v -0.159722 0.361934 0.075409
v -0.159722 0.235188 0.075409
v -0.159722 0.235188 -0.076687
v -0.159722 0.285886 -0.076687
v -0.159722 0.361934 -0.076687
v -0.159722 0.285886 -0.102037
v -0.159722 0.336585 -0.102037
v -0.159722 0.387284 -0.102037
v -0.185072 0.235188 0.100758
v -0.185072 0.235188 0.075409
v -0.185072 0.260537 0.100758
v -0.185072 0.285886 0.100758
v -0.185072 0.285886 0.075409
v -0.185072 0.235188 -0.076687
v -0.185072 0.235188 -0.102037
v -0.185072 0.285886 -0.076687
v -0.185072 0.260537 -0.102037
v -0.185072 0.285886 -0.102037
v -0.210421 0.285886 0.075409
v -0.210421 0.361934 0.075409
v -0.210421 0.285886 -0.076687
v -0.210421 0.361934 -0.076687
v -0.235770 0.311236 0.176806
v -0.235770 0.361934 0.176806
v -0.235770 0.311236 0.100758
v -0.235770 0.361934 0.100758
v -0.235770 0.311236 -0.102037
v -0.235770 0.361934 -0.102037
v -0.235770 0.311236 -0.178085
v -0.235770 0.361934 -0.178085
v -0.261120 0.260537 0.176806
v -0.261120 0.311236 0.176806
v -0.261120 0.260537 0.100758
v -0.261120 0.311236 0.100758
v -0.261120 0.260537 -0.102037
v -0.261120 0.311236 -0.102037
v -0.261120 0.260537 -0.178085
v -0.261120 0.311236 -0.178085
v 0.119120 0.260537 0.126107
v 0.144470 0.260537 0.100758
v 0.144470 0.260537 0.126107
v 0.119120 0.260537 0.100758
v 0.119120 0.260537 -0.102037
v 0.144470 0.260537 -0.127386
v 0.144470 0.260537 -0.102037
v 0.119120 0.260537 -0.127386
v -0.185072 0.260537 0.100758
v 0.119120 0.260537 0.176806
v -0.185072 0.260537 -0.102037
v 0.119120 0.260537 -0.178085
v -0.261120 0.260537 0.176806
v -0.261120 0.260537 0.100758
v -0.261120 0.260537 -0.102037
v -0.261120 0.260537 -0.178085
v -0.185072 0.285886 0.075409
v -0.159722 0.285886 -0.076687
v -0.159722 0.285886 0.075409
v -0.185072 0.285886 -0.076687
v -0.210421 0.285886 0.075409
v -0.210421 0.285886 -0.076687
v 0.195168 0.336585 0.024710
v 0.600757 0.336585 -0.025989
v 0.600757 0.336585 0.024710
v 0.195168 0.336585 -0.025989
v 0.119120 0.336585 0.024710
v 0.119120 0.336585 -0.025989
v 0.093771 0.336585 0.050059
v 0.119120 0.336585 0.050059
v 0.093771 0.336585 0.024710
v 0.093771 0.336585 -0.025989
v 0.119120 0.336585 -0.051338
v 0.093771 0.336585 -0.051338
v 0.068422 0.336585 0.075409
v 0.093771 0.336585 0.075409
v 0.068422 0.336585 0.050059
v 0.068422 0.336585 -0.025989
v 0.093771 0.336585 -0.076687
v 0.068422 0.336585 -0.076687
v -0.109024 0.361934 0.126107
v 0.043072 0.361934 0.100758
v 0.043072 0.361934 0.126107
v -0.109024 0.361934 0.100758
v -0.109024 0.361934 -0.102037
v 0.043072 0.361934 -0.127386
v 0.043072 0.361934 -0.102037
v -0.109024 0.361934 -0.127386
v -0.007626 0.488681 0.024710
v 0.017723 0.488681 -0.025989
v 0.017723 0.488681 0.024710
v -0.007626 0.488681 -0.025989
v 0.144470 0.235188 0.100758
v 0.144470 0.235188 -0.102037
v -0.185072 0.235188 0.100758
v -0.159722 0.235188 0.075409
v -0.159722 0.235188 -0.076687
v -0.185072 0.235188 0.075409
v -0.185072 0.235188 -0.076687
v -0.185072 0.235188 -0.102037
v 0.144470 0.260537 0.100758
v 0.144470 0.260537 -0.102037
v 0.119120 0.260537 0.100758
v 0.119120 0.260537 -0.102037
v 0.144470 0.285886 0.126107
v 0.144470 0.285886 0.100758
v 0.119120 0.285886 0.126107
v 0.119120 0.285886 0.100758
v 0.144470 0.285886 -0.102037
v 0.144470 0.285886 -0.127386
v 0.119120 0.285886 -0.102037
v 0.119120 0.285886 -0.127386
v 0.093771 0.285886 0.176806
v 0.119120 0.285886 -0.178085
v 0.119120 0.285886 0.176806
v 0.093771 0.285886 -0.178085
v -0.159722 0.285886 0.100758
v -0.159722 0.285886 0.075409
v -0.185072 0.285886 0.100758
v -0.185072 0.285886 0.075409
v -0.159722 0.285886 -0.076687
v -0.159722 0.285886 -0.102037
v -0.185072 0.285886 -0.076687
v -0.185072 0.285886 -0.102037
v 0.093771 0.311236 0.176806
v 0.093771 0.311236 -0.178085
v 0.068422 0.311236 0.176806
v 0.068422 0.311236 -0.178085
v -0.235770 0.311236 0.176806
v -0.235770 0.311236 0.100758
v -0.261120 0.311236 0.176806
v -0.261120 0.311236 0.100758
v -0.235770 0.311236 -0.102037
v -0.235770 0.311236 -0.178085
v -0.261120 0.311236 -0.102037
v -0.261120 0.311236 -0.178085
v 0.068422 0.336585 0.176806
v 0.068422 0.336585 0.100758
v 0.043072 0.336585 0.176806
v 0.043072 0.336585 0.151457
v 0.068422 0.336585 -0.102037
v 0.068422 0.336585 -0.178085
v 0.043072 0.336585 -0.152735
v 0.043072 0.336585 -0.178085
v -0.083674 0.336585 0.151457
v -0.083674 0.336585 -0.152735
v -0.083674 0.336585 0.176806
v -0.159722 0.336585 0.100758
v -0.083674 0.336585 -0.178085
v -0.159722 0.336585 -0.102037
v -0.185072 0.336585 0.176806
v -0.185072 0.336585 0.100758
v -0.185072 0.336585 -0.102037
v -0.185072 0.336585 -0.178085
v 0.043072 0.361934 0.176806
v 0.043072 0.361934 0.151457
v -0.083674 0.361934 0.176806
v -0.083674 0.361934 0.151457
v 0.043072 0.361934 -0.152735
v 0.043072 0.361934 -0.178085
v -0.083674 0.361934 -0.152735
v -0.083674 0.361934 -0.178085
v -0.159722 0.361934 0.075409
v -0.159722 0.361934 -0.076687
v -0.210421 0.361934 0.075409
v -0.210421 0.361934 -0.076687
v -0.185072 0.361934 0.176806
v -0.185072 0.361934 0.100758
v -0.235770 0.361934 0.176806
v -0.235770 0.361934 0.100758
v -0.185072 0.361934 -0.102037
v -0.185072 0.361934 -0.178085
v -0.235770 0.361934 -0.102037
v -0.235770 0.361934 -0.178085
v 0.600757 0.387284 0.024710
v 0.600757 0.387284 -0.025989
v 0.119120 0.387284 0.024710
v 0.119120 0.387284 -0.025989
v -0.134373 0.387284 0.100758
v -0.134373 0.387284 -0.102037
v -0.159722 0.387284 0.100758
v -0.159722 0.387284 -0.102037
v 0.119120 0.412633 0.050059
v 0.119120 0.412633 -0.051338
v 0.093771 0.412633 0.050059
v 0.093771 0.412633 -0.051338
v 0.093771 0.412633 0.075409
v 0.068422 0.412633 0.075409
v 0.093771 0.412633 -0.076687
v 0.068422 0.412633 -0.076687
v 0.043072 0.412633 0.126107
v 0.043072 0.412633 0.100758
v -0.109024 0.412633 0.126107
v -0.109024 0.412633 0.100758
v 0.043072 0.412633 -0.102037
v 0.043072 0.412633 -0.127386
v -0.109024 0.412633 -0.102037
v -0.109024 0.412633 -0.127386
v 0.068422 0.437982 0.100758
v 0.068422 0.437982 -0.102037
v 0.043072 0.437982 0.075409
v 0.043072 0.437982 -0.076687
v -0.109024 0.437982 0.075409
v -0.109024 0.437982 -0.076687
v -0.134373 0.437982 0.100758
v -0.134373 0.437982 -0.102037
v 0.043072 0.463332 0.075409
v 0.043072 0.463332 -0.076687
v 0.017723 0.463332 0.075409
v 0.017723 0.463332 0.050059
v 0.017723 0.463332 -0.051338
v 0.017723 0.463332 -0.076687
v -0.007626 0.463332 0.050059
v -0.007626 0.463332 -0.051338
v -0.058325 0.463332 0.075409
v -0.058325 0.463332 0.050059
v -0.083674 0.463332 0.050059
v -0.058325 0.463332 -0.051338
v -0.058325 0.463332 -0.076687
v -0.083674 0.463332 -0.051338
v -0.109024 0.463332 0.075409
v -0.109024 0.463332 -0.076687
v 0.017723 0.488681 0.075409
v 0.017723 0.488681 0.050059
v -0.007626 0.488681 0.050059
v 0.017723 0.488681 -0.051338
v 0.017723 0.488681 -0.076687
v -0.007626 0.488681 -0.051338
v -0.058325 0.488681 0.075409
v -0.058325 0.488681 0.050059
v -0.058325 0.488681 -0.051338
v -0.058325 0.488681 -0.076687
v 0.017723 0.514030 0.024710
v 0.017723 0.514030 -0.025989
v -0.007626 0.514030 0.024710
v -0.007626 0.514030 -0.025989
v -0.007626 0.564729 0.050059
v -0.007626 0.564729 -0.051338
v -0.083674 0.564729 0.050059
v -0.083674 0.564729 -0.051338
vt 0.453517 0.308132
vt 0.443640 0.337776
vt 0.443640 0.308132
vt 0.453517 0.337776
vt 0.252356 0.387182
vt 0.252356 0.416826
vt 0.242480 0.387182
vt 0.242480 0.416826
vt 0.051196 0.633669
vt 0.061073 0.604026
vt 0.061073 0.633669
vt 0.051196 0.604026
vt 0.128126 0.623788
vt 0.138003 0.633669
vt 0.128126 0.633669
vt 0.108373 0.613907
vt 0.108373 0.623788
vt 0.118250 0.613907
vt 0.108373 0.604026
vt 0.118250 0.604026
vt 0.108373 0.594144
vt 0.138003 0.594144
vt 0.844872 0.690872
vt 0.854749 0.700753
vt 0.844872 0.700753
vt 0.854749 0.690872
vt 0.872418 0.927478
vt 0.862541 0.927478
vt 0.872418 0.917596
vt 0.862541 0.917596
vt 0.595416 0.444385
vt 0.585539 0.444385
vt 0.595416 0.434503
vt 0.615170 0.434503
vt 0.615170 0.424622
vt 0.605293 0.424622
vt 0.615170 0.414741
vt 0.605293 0.414741
vt 0.615170 0.404860
vt 0.585539 0.404860
vt 0.632839 0.608196
vt 0.632839 0.578552
vt 0.642716 0.608196
vt 0.642716 0.578552
vt 0.982059 0.323724
vt 0.972182 0.313843
vt 0.982059 0.313843
vt 0.972182 0.323724
vt 0.281987 0.970628
vt 0.291864 0.980509
vt 0.281987 0.980509
vt 0.291864 0.970628
vt 0.425971 0.596229
vt 0.425971 0.606111
vt 0.416094 0.606111
vt 0.435847 0.606111
vt 0.435847 0.596229
vt 0.445724 0.596229
vt 0.455601 0.606111
vt 0.445724 0.606111
vt 0.425971 0.576467
vt 0.435847 0.576467
vt 0.445724 0.576467
vt 0.416094 0.566586
vt 0.425971 0.566586
vt 0.435847 0.566586
vt 0.445724 0.566586
vt 0.455601 0.566586
vt 0.979974 0.232708
vt 0.970098 0.232708
vt 0.979974 0.222826
vt 0.970098 0.222826
vt 0.982059 0.306047
vt 0.972182 0.306047
vt 0.982059 0.296166
vt 0.972182 0.296166
vt 0.408301 0.606111
vt 0.368794 0.606111
vt 0.408301 0.566586
vt 0.368794 0.566586
vt 0.809533 0.118303
vt 0.799656 0.138065
vt 0.799656 0.118303
vt 0.809533 0.138065
vt 0.862541 0.690872
vt 0.872418 0.690872
vt 0.872418 0.700753
vt 0.907757 0.757955
vt 0.897880 0.757955
vt 0.907757 0.748074
vt 0.862541 0.720516
vt 0.872418 0.720516
vt 0.907757 0.728312
vt 0.897880 0.728312
vt 0.033527 0.586348
vt 0.033527 0.625873
vt 0.003896 0.586348
vt 0.003896 0.625873
vt 0.361001 0.298251
vt 0.370878 0.150032
vt 0.370878 0.298251
vt 0.361001 0.288370
vt 0.361001 0.258726
vt 0.361001 0.229082
vt 0.351125 0.288370
vt 0.351125 0.278488
vt 0.351125 0.258726
vt 0.351125 0.248845
vt 0.351125 0.238963
vt 0.351125 0.229082
vt 0.351125 0.159913
vt 0.351125 0.150032
vt 0.341248 0.278488
vt 0.341248 0.268607
vt 0.341248 0.248845
vt 0.341248 0.238963
vt 0.341248 0.219201
vt 0.341248 0.179676
vt 0.331371 0.268607
vt 0.331371 0.219201
vt 0.331371 0.179676
vt 0.331371 0.159913
vt 0.756525 0.970628
vt 0.766402 0.980510
vt 0.756525 0.980510
vt 0.766402 0.970628
vt 0.615170 0.558790
vt 0.595416 0.618077
vt 0.595416 0.558790
vt 0.615170 0.618077
vt 0.571494 0.278488
vt 0.581371 0.150032
vt 0.581371 0.278488
vt 0.571494 0.268607
vt 0.571494 0.150032
vt 0.361001 0.385097
vt 0.370878 0.306047
vt 0.370878 0.394978
vt 0.361001 0.325810
vt 0.351125 0.315928
vt 0.351125 0.306047
vt 0.341248 0.385097
vt 0.341248 0.325810
vt 0.331371 0.394978
vt 0.331371 0.315928
vt 0.589164 0.256641
vt 0.599040 0.286284
vt 0.589164 0.286284
vt 0.608917 0.286284
vt 0.608917 0.256641
vt 0.848496 0.371045
vt 0.858373 0.400689
vt 0.848496 0.400689
vt 0.858373 0.371045
vt 0.061073 0.643551
vt 0.070950 0.584263
vt 0.070950 0.643551
vt 0.061073 0.584263
vt 0.685847 0.862479
vt 0.695724 0.892123
vt 0.685847 0.892123
vt 0.695724 0.862479
vt 0.463394 0.150032
vt 0.453517 0.150032
vt 0.463394 0.337776
vt 0.693640 0.118303
vt 0.703517 0.138065
vt 0.693640 0.138065
vt 0.703517 0.118303
vt 0.897880 0.986220
vt 0.907757 0.996102
vt 0.897880 0.996102
vt 0.907757 0.986220
vt 0.033527 0.568671
vt 0.043404 0.539027
vt 0.043404 0.568671
vt 0.023650 0.548908
vt 0.033527 0.578552
vt 0.023650 0.539027
vt 0.013773 0.578552
vt 0.013773 0.568671
vt 0.003896 0.568671
vt 0.003896 0.548908
vt 0.695724 0.608196
vt 0.705601 0.558790
vt 0.705601 0.608196
vt 0.695724 0.558790
vt 0.681679 0.353368
vt 0.681679 0.402774
vt 0.671802 0.353368
vt 0.671802 0.402774
vt 0.946720 0.333606
vt 0.946720 0.343487
vt 0.936843 0.333606
vt 0.936843 0.343487
vt 0.214933 0.576467
vt 0.214933 0.606111
vt 0.205057 0.576467
vt 0.205057 0.596229
vt 0.205057 0.566586
vt 0.195180 0.566586
vt 0.195180 0.576467
vt 0.195180 0.586348
vt 0.195180 0.596229
vt 0.195180 0.606111
vt 0.185303 0.566586
vt 0.185303 0.576467
vt 0.185303 0.586348
vt 0.175426 0.576467
vt 0.175426 0.596229
vt 0.500817 0.138065
vt 0.490940 0.138065
vt 0.500817 0.118303
vt 0.490940 0.118303
vt 0.242480 0.229082
vt 0.232603 0.229082
vt 0.232603 0.416826
vt 0.536155 0.872360
vt 0.526279 0.872360
vt 0.536155 0.842716
vt 0.526279 0.842716
vt 0.167634 0.414741
vt 0.157757 0.414741
vt 0.167634 0.385097
vt 0.147880 0.414741
vt 0.147880 0.385097
vt 0.827203 0.128184
vt 0.817326 0.128184
vt 0.827203 0.098540
vt 0.817326 0.098540
vt 0.622962 0.618077
vt 0.622962 0.558790
vt 0.632839 0.618077
vt 0.632839 0.558790
vt 0.587624 0.003898
vt 0.587624 0.132355
vt 0.577747 0.003898
vt 0.577747 0.013779
vt 0.577747 0.132355
vt 0.100580 0.315928
vt 0.100580 0.404860
vt 0.090703 0.325810
vt 0.090703 0.385097
vt 0.080827 0.394978
vt 0.080827 0.404860
vt 0.070950 0.325810
vt 0.070950 0.385097
vt 0.061073 0.315928
vt 0.061073 0.394978
vt 0.872418 0.935274
vt 0.872418 0.945155
vt 0.862541 0.935274
vt 0.862541 0.945155
vt 0.232603 0.590519
vt 0.232603 0.531231
vt 0.252356 0.590519
vt 0.252356 0.531231
vt 0.187387 0.229082
vt 0.187387 0.377301
vt 0.177510 0.229082
vt 0.177510 0.238963
vt 0.167634 0.238963
vt 0.167634 0.248845
vt 0.167634 0.367420
vt 0.167634 0.377301
vt 0.157757 0.248845
vt 0.157757 0.258726
vt 0.157757 0.308132
vt 0.157757 0.347657
vt 0.147880 0.258726
vt 0.147880 0.308132
vt 0.147880 0.347657
vt 0.147880 0.367420
vt 0.465478 0.128184
vt 0.445724 0.138065
vt 0.445724 0.128184
vt 0.465478 0.138065
vt 0.986227 0.013779
vt 0.976350 0.003898
vt 0.986227 0.003898
vt 0.976350 0.013779
vt 0.557993 0.645636
vt 0.548116 0.566586
vt 0.557993 0.566586
vt 0.548116 0.645636
vt 0.632839 0.990391
vt 0.622962 0.980510
vt 0.632839 0.980510
vt 0.622962 0.990391
vt 0.650509 0.140151
vt 0.640632 0.120388
vt 0.650509 0.120388
vt 0.640632 0.140151
vt 0.293948 0.596229
vt 0.264318 0.586348
vt 0.293948 0.586348
vt 0.284071 0.596229
vt 0.274194 0.596229
vt 0.274194 0.615992
vt 0.293948 0.625873
vt 0.284071 0.615992
vt 0.293948 0.615992
vt 0.264318 0.625873
vt 0.349040 0.574382
vt 0.358917 0.653432
vt 0.349040 0.653432
vt 0.358917 0.574382
vt 0.854749 0.546823
vt 0.844872 0.527061
vt 0.854749 0.527061
vt 0.844872 0.546823
vt 0.264318 0.909800
vt 0.274194 0.880156
vt 0.274194 0.909800
vt 0.264318 0.880156
vt 0.828742 0.254555
vt 0.838619 0.224912
vt 0.838619 0.254555
vt 0.828742 0.224912
vt 0.563702 0.288370
vt 0.553825 0.150032
vt 0.563702 0.150032
vt 0.553825 0.288370
vt 0.043404 0.258726
vt 0.043404 0.229082
vt 0.053280 0.229082
vt 0.043404 0.268607
vt 0.003896 0.258726
vt 0.013773 0.268607
vt 0.043404 0.278488
vt 0.043404 0.308132
vt 0.043404 0.327895
vt 0.013773 0.327895
vt 0.043404 0.337776
vt 0.003896 0.337776
vt 0.053280 0.367420
vt 0.043404 0.367420
vt 0.917634 0.606111
vt 0.907757 0.596229
vt 0.917634 0.596229
vt 0.907757 0.606111
vt 0.873958 0.262352
vt 0.864081 0.282114
vt 0.864081 0.262352
vt 0.873958 0.282114
vt 0.669718 0.217116
vt 0.679595 0.276403
vt 0.669718 0.276403
vt 0.679595 0.217116
vt 0.626587 0.266522
vt 0.616710 0.286284
vt 0.616710 0.266522
vt 0.626587 0.286284
vt 0.123958 0.925392
vt 0.114081 0.935274
vt 0.114081 0.925392
vt 0.123958 0.935274
vt 0.640632 0.872360
vt 0.650509 0.902004
vt 0.640632 0.902004
vt 0.650509 0.872360
vt 0.088619 0.880156
vt 0.078742 0.850513
vt 0.088619 0.850513
vt 0.078742 0.880156
vt 0.926966 0.159913
vt 0.917089 0.159913
vt 0.926966 0.150032
vt 0.917089 0.150032
vt 0.713394 0.909800
vt 0.703517 0.909800
vt 0.713394 0.899919
vt 0.703517 0.899919
vt 0.793404 0.284199
vt 0.793404 0.264437
vt 0.803280 0.284199
vt 0.803280 0.264437
vt 0.679595 0.209319
vt 0.669718 0.209319
vt 0.679595 0.150032
vt 0.669718 0.150032
vt 0.846412 0.282114
vt 0.846412 0.262352
vt 0.856289 0.282114
vt 0.856289 0.262352
vt 0.577747 0.444385
vt 0.557993 0.444385
vt 0.577747 0.365335
vt 0.557993 0.365335
vt 0.410385 0.082948
vt 0.400509 0.082948
vt 0.410385 0.073067
vt 0.390632 0.082948
vt 0.370878 0.082948
vt 0.380755 0.073067
vt 0.587624 0.618077
vt 0.567870 0.618077
vt 0.587624 0.558790
vt 0.567870 0.558790
vt 0.380755 0.013779
vt 0.410385 0.013779
vt 0.410385 0.003898
vt 0.390632 0.003898
vt 0.370878 0.003898
vt 0.023650 0.385097
vt 0.033527 0.385097
vt 0.013773 0.394978
vt 0.013773 0.385097
vt 0.033527 0.394978
vt 0.013773 0.454266
vt 0.033527 0.454266
vt 0.013773 0.464147
vt 0.023650 0.464147
vt 0.033527 0.464147
vt 0.583455 0.355453
vt 0.553825 0.355453
vt 0.583455 0.296166
vt 0.553825 0.296166
vt 0.642716 0.444385
vt 0.622962 0.444385
vt 0.642716 0.414741
vt 0.622962 0.414741
vt 0.587624 0.655517
vt 0.567870 0.655517
vt 0.587624 0.625873
vt 0.567870 0.625873
vt 0.398424 0.558790
vt 0.378671 0.558790
vt 0.398424 0.529146
vt 0.378671 0.529146
vt 0.615170 0.140151
vt 0.595416 0.140151
vt 0.615170 0.110507
vt 0.595416 0.110507
vt 0.205057 0.238963
vt 0.195180 0.229082
vt 0.205057 0.229082
vt 0.195180 0.238963
vt 0.378671 0.298251
vt 0.388548 0.308132
vt 0.378671 0.308132
vt 0.388548 0.298251
vt 0.195180 0.357539
vt 0.224810 0.238963
vt 0.378671 0.179676
vt 0.408301 0.298251
vt 0.224810 0.387182
vt 0.195180 0.387182
vt 0.378671 0.150032
vt 0.408301 0.150032
vt 0.331371 0.574382
vt 0.321494 0.633669
vt 0.321494 0.574382
vt 0.331371 0.633669
vt 0.341248 0.574382
vt 0.341248 0.633669
vt 0.303825 0.308132
vt 0.284071 0.150032
vt 0.303825 0.150032
vt 0.284071 0.308132
vt 0.303825 0.337776
vt 0.284071 0.337776
vt 0.313702 0.347657
vt 0.313702 0.337776
vt 0.303825 0.347657
vt 0.284071 0.347657
vt 0.274194 0.337776
vt 0.274194 0.347657
vt 0.323578 0.357538
vt 0.323578 0.347657
vt 0.313702 0.357538
vt 0.284071 0.357538
vt 0.264318 0.347657
vt 0.264318 0.357538
vt 0.658301 0.070982
vt 0.668178 0.130269
vt 0.658301 0.130269
vt 0.668178 0.070982
vt 0.668178 0.615992
vt 0.678055 0.675280
vt 0.668178 0.675280
vt 0.678055 0.615992
vt 0.311617 0.586348
vt 0.311617 0.645636
vt 0.301741 0.586348
vt 0.301741 0.645636
vt 0.654133 0.375216
vt 0.654133 0.296166
vt 0.664010 0.375216
vt 0.664010 0.296166
vt 0.418178 0.122473
vt 0.418178 0.112592
vt 0.428055 0.122473
vt 0.428055 0.112592
vt 0.418178 0.033542
vt 0.418178 0.023661
vt 0.428055 0.033542
vt 0.428055 0.023661
vt 0.437932 0.142236
vt 0.428055 0.003898
vt 0.428055 0.142236
vt 0.437932 0.003898
vt 0.766402 0.935274
vt 0.766402 0.945155
vt 0.756525 0.935274
vt 0.756525 0.945155
vt 0.933219 0.059015
vt 0.933219 0.068897
vt 0.923342 0.059015
vt 0.923342 0.068897
vt 0.569954 0.003898
vt 0.569954 0.142236
vt 0.560078 0.003898
vt 0.560078 0.142236
vt 0.291864 0.880156
vt 0.291864 0.909800
vt 0.281987 0.880156
vt 0.281987 0.909800
vt 0.695724 0.509383
vt 0.695724 0.539027
vt 0.685847 0.509383
vt 0.685847 0.539027
vt 0.378671 0.315928
vt 0.408301 0.315928
vt 0.378671 0.325810
vt 0.388548 0.325810
vt 0.108373 0.315928
vt 0.138003 0.315928
vt 0.128126 0.325810
vt 0.138003 0.325810
vt 0.388548 0.375216
vt 0.128126 0.375216
vt 0.378671 0.375216
vt 0.408301 0.404860
vt 0.138003 0.375216
vt 0.108373 0.404860
vt 0.378671 0.414741
vt 0.408301 0.414741
vt 0.108373 0.414741
vt 0.138003 0.414741
vt 0.031442 0.797481
vt 0.021566 0.797481
vt 0.031442 0.748074
vt 0.021566 0.748074
vt 0.793948 0.608196
vt 0.784071 0.608196
vt 0.793948 0.558790
vt 0.784071 0.558790
vt 0.632839 0.452181
vt 0.632839 0.511468
vt 0.613086 0.452181
vt 0.613086 0.511468
vt 0.615170 0.625873
vt 0.615170 0.655517
vt 0.595416 0.625873
vt 0.595416 0.655517
vt 0.632839 0.519264
vt 0.632839 0.548908
vt 0.613086 0.519264
vt 0.613086 0.548908
vt 0.416094 0.150032
vt 0.435847 0.150032
vt 0.416094 0.337776
vt 0.435847 0.337776
vt 0.661925 0.150032
vt 0.661925 0.229082
vt 0.652049 0.150032
vt 0.652049 0.229082
vt 0.483147 0.576467
vt 0.483147 0.615992
vt 0.473270 0.576467
vt 0.473270 0.615992
vt 0.473270 0.566586
vt 0.463394 0.566586
vt 0.473270 0.625873
vt 0.463394 0.625873
vt 0.658301 0.003898
vt 0.668178 0.003898
vt 0.658301 0.063186
vt 0.668178 0.063186
vt 0.664010 0.442300
vt 0.654133 0.442300
vt 0.664010 0.383012
vt 0.654133 0.383012
vt 0.140087 0.308132
vt 0.061073 0.308132
vt 0.130211 0.298251
vt 0.070950 0.298251
vt 0.130211 0.238963
vt 0.070950 0.238963
vt 0.140087 0.229082
vt 0.061073 0.229082
vt 0.520570 0.625873
vt 0.520570 0.566586
vt 0.530447 0.625873
vt 0.530447 0.615992
vt 0.530447 0.576467
vt 0.530447 0.566586
vt 0.540324 0.615992
vt 0.540324 0.576467
vt 0.510693 0.566586
vt 0.510693 0.576467
vt 0.500817 0.576467
vt 0.510693 0.615992
vt 0.510693 0.625873
vt 0.500817 0.615992
vt 0.490940 0.566586
vt 0.490940 0.625873
vt 0.443640 0.150032
vt 0.252356 0.229082
vt 0.465478 0.118303
vt 0.445724 0.118303
vt 0.404133 0.968543
vt 0.414010 0.978424
vt 0.404133 0.978424
vt 0.414010 0.968543
vt 0.846956 0.606111
vt 0.837079 0.606111
vt 0.846956 0.596229
vt 0.837079 0.596229
vt 0.483147 0.138065
vt 0.473270 0.118303
vt 0.483147 0.118303
vt 0.473270 0.138065
vt 0.791864 0.118303
vt 0.791864 0.138065
vt 0.781987 0.118303
vt 0.781987 0.138065
vn 0.0000 -0.0000 1.0000
vn -0.0000 0.0000 -1.0000
vn 1.0000 -0.0000 -0.0000
vn -1.0000 0.0000 0.0000
vn 0.0000 -1.0000 0.0000
vn 0.0000 1.0000 0.0000
s 1
f 82/1/1 83/2/1 80/3/1
f 84/4/1 83/2/1 82/1/1
f 149/5/2 151/6/2 152/7/2
f 152/7/2 151/6/2 153/8/2
f 63/9/1 61/10/1 60/11/1
f 64/12/1 61/10/1 63/9/1
f 69/13/1 70/14/1 71/15/1
f 72/16/1 69/13/1 73/17/1
f 74/18/1 69/13/1 72/16/1
f 75/19/1 74/18/1 72/16/1
f 76/20/1 69/13/1 74/18/1
f 76/20/1 74/18/1 75/19/1
f 77/21/1 76/20/1 75/19/1
f 78/22/1 70/14/1 69/13/1
f 78/22/1 76/20/1 77/21/1
f 78/22/1 69/13/1 76/20/1
f 91/23/1 92/24/1 93/25/1
f 94/26/1 92/24/1 91/23/1
f 144/27/2 145/28/2 146/29/2
f 146/29/2 145/28/2 147/30/2
f 164/31/2 165/32/2 166/33/2
f 167/34/2 166/33/2 168/35/2
f 168/35/2 166/33/2 169/36/2
f 168/35/2 169/36/2 170/37/2
f 169/36/2 166/33/2 171/38/2
f 170/37/2 169/36/2 171/38/2
f 170/37/2 171/38/2 172/39/2
f 166/33/2 165/32/2 173/40/2
f 172/39/2 171/38/2 173/40/2
f 171/38/2 166/33/2 173/40/2
f 186/41/2 187/42/2 189/43/2
f 189/43/2 187/42/2 190/44/2
f 314/45/3 315/46/3 316/47/3
f 317/48/3 315/46/3 314/45/3
f 322/49/3 323/50/3 324/51/3
f 325/52/3 323/50/3 322/49/3
f 326/53/3 327/54/3 328/55/3
f 326/53/3 329/56/3 327/54/3
f 330/57/3 329/56/3 326/53/3
f 332/58/3 333/59/3 331/60/3
f 334/61/3 326/53/3 328/55/3
f 335/62/3 332/58/3 330/57/3
f 336/63/3 333/59/3 332/58/3
f 336/63/3 332/58/3 335/62/3
f 337/64/3 335/62/3 334/61/3
f 337/64/3 334/61/3 328/55/3
f 338/65/3 335/62/3 337/64/3
f 339/66/3 335/62/3 338/65/3
f 340/67/3 333/59/3 336/63/3
f 341/68/3 333/59/3 340/67/3
f 350/69/4 351/70/4 352/71/4
f 352/71/4 351/70/4 353/72/4
f 354/73/4 355/74/4 356/75/4
f 356/75/4 355/74/4 357/76/4
f 362/77/4 363/78/4 364/79/4
f 364/79/4 363/78/4 365/80/4
f 477/81/5 478/82/5 479/83/5
f 480/84/5 478/82/5 477/81/5
f 611/85/6 612/86/6 613/87/6
f 614/88/6 615/89/6 616/90/6
f 611/85/6 613/87/6 617/91/6
f 617/91/6 613/87/6 618/92/6
f 616/90/6 615/89/6 619/93/6
f 619/93/6 615/89/6 620/94/6
f 625/95/6 626/96/6 627/97/6
f 627/97/6 626/96/6 628/98/6
f 1/99/1 2/100/1 3/101/1
f 4/102/1 2/100/1 1/99/1
f 5/103/1 2/100/1 4/102/1
f 6/104/1 2/100/1 5/103/1
f 7/105/1 5/103/1 4/102/1
f 8/106/1 5/103/1 7/105/1
f 9/107/1 6/104/1 5/103/1
f 9/107/1 5/103/1 8/106/1
f 10/108/1 6/104/1 9/107/1
f 11/109/1 6/104/1 10/108/1
f 12/110/1 2/100/1 6/104/1
f 12/110/1 6/104/1 11/109/1
f 13/111/1 2/100/1 12/110/1
f 14/112/1 2/100/1 13/111/1
f 15/113/1 9/107/1 8/106/1
f 15/113/1 10/108/1 9/107/1
f 16/114/1 10/108/1 15/113/1
f 17/115/1 11/109/1 10/108/1
f 17/115/1 10/108/1 16/114/1
f 18/116/1 13/111/1 12/110/1
f 18/116/1 11/109/1 17/115/1
f 18/116/1 12/110/1 11/109/1
f 19/117/1 13/111/1 18/116/1
f 20/118/1 13/111/1 19/117/1
f 21/119/1 17/115/1 16/114/1
f 21/119/1 19/117/1 18/116/1
f 21/119/1 18/116/1 17/115/1
f 22/120/1 19/117/1 21/119/1
f 23/121/1 13/111/1 20/118/1
f 24/122/1 13/111/1 23/121/1
f 25/123/1 26/124/1 27/125/1
f 28/126/1 26/124/1 25/123/1
f 29/127/1 30/128/1 31/129/1
f 32/130/1 30/128/1 29/127/1
f 33/131/1 34/132/1 35/133/1
f 36/134/1 34/132/1 33/131/1
f 37/135/1 34/132/1 36/134/1
f 38/136/1 39/137/1 40/138/1
f 41/139/1 39/137/1 38/136/1
f 42/140/1 39/137/1 41/139/1
f 43/141/1 39/137/1 42/140/1
f 44/142/1 38/136/1 40/138/1
f 45/143/1 42/140/1 41/139/1
f 46/144/1 44/142/1 40/138/1
f 46/144/1 45/143/1 44/142/1
f 47/145/1 42/140/1 45/143/1
f 47/145/1 45/143/1 46/144/1
f 48/146/1 49/147/1 50/148/1
f 48/146/1 51/149/1 49/147/1
f 52/150/1 51/149/1 48/146/1
f 53/151/1 54/152/1 55/153/1
f 56/154/1 54/152/1 53/151/1
f 57/155/1 58/156/1 59/157/1
f 60/11/1 58/156/1 57/155/1
f 61/10/1 58/156/1 60/11/1
f 62/158/1 58/156/1 61/10/1
f 65/159/1 66/160/1 67/161/1
f 68/162/1 66/160/1 65/159/1
f 85/163/1 82/1/1 79/164/1
f 85/163/1 84/4/1 82/1/1
f 86/165/1 84/4/1 85/163/1
f 95/166/1 96/167/1 97/168/1
f 98/169/1 96/167/1 95/166/1
f 99/170/1 100/171/1 101/172/1
f 102/173/1 100/171/1 99/170/1
f 103/174/1 104/175/1 105/176/1
f 106/177/1 103/174/1 107/178/1
f 106/177/1 104/175/1 103/174/1
f 108/179/1 104/175/1 106/177/1
f 109/180/1 106/177/1 107/178/1
f 110/181/1 106/177/1 109/180/1
f 111/182/1 106/177/1 110/181/1
f 112/183/1 106/177/1 111/182/1
f 113/184/1 114/185/1 115/186/1
f 116/187/1 114/185/1 113/184/1
f 117/188/2 118/189/2 119/190/2
f 119/190/2 118/189/2 120/191/2
f 121/192/2 122/193/2 123/194/2
f 123/194/2 122/193/2 124/195/2
f 125/196/2 126/197/2 127/198/2
f 127/198/2 126/197/2 128/199/2
f 129/200/2 127/198/2 130/201/2
f 127/198/2 128/199/2 130/201/2
f 130/201/2 128/199/2 131/202/2
f 131/202/2 128/199/2 132/203/2
f 128/199/2 126/197/2 133/204/2
f 132/203/2 128/199/2 133/204/2
f 133/204/2 126/197/2 134/205/2
f 130/201/2 131/202/2 135/206/2
f 131/202/2 132/203/2 136/207/2
f 135/206/2 131/202/2 136/207/2
f 132/203/2 133/204/2 137/208/2
f 136/207/2 132/203/2 137/208/2
f 136/207/2 137/208/2 138/209/2
f 137/208/2 133/204/2 139/210/2
f 138/209/2 137/208/2 139/210/2
f 140/211/2 141/212/2 142/213/2
f 142/213/2 141/212/2 143/214/2
f 150/215/2 152/7/2 154/216/2
f 152/7/2 153/8/2 154/216/2
f 154/216/2 153/8/2 155/217/2
f 160/218/2 161/219/2 162/220/2
f 162/220/2 161/219/2 163/221/2
f 174/222/2 175/223/2 176/224/2
f 175/223/2 177/225/2 176/224/2
f 176/224/2 177/225/2 178/226/2
f 179/227/2 180/228/2 181/229/2
f 181/229/2 180/228/2 182/230/2
f 183/231/2 184/232/2 185/233/2
f 185/233/2 184/232/2 186/41/2
f 186/41/2 184/232/2 187/42/2
f 187/42/2 184/232/2 188/234/2
f 191/235/2 192/236/2 193/237/2
f 193/237/2 192/236/2 194/238/2
f 194/238/2 192/236/2 195/239/2
f 196/240/2 197/241/2 198/242/2
f 198/242/2 197/241/2 199/243/2
f 199/243/2 197/241/2 200/244/2
f 200/244/2 197/241/2 201/245/2
f 196/240/2 198/242/2 202/246/2
f 199/243/2 200/244/2 203/247/2
f 196/240/2 202/246/2 204/248/2
f 202/246/2 203/247/2 204/248/2
f 203/247/2 200/244/2 205/249/2
f 204/248/2 203/247/2 205/249/2
f 206/250/2 207/251/2 208/252/2
f 208/252/2 207/251/2 209/253/2
f 210/254/2 211/255/2 212/256/2
f 212/256/2 211/255/2 213/257/2
f 214/258/2 215/259/2 216/260/2
f 216/260/2 215/259/2 217/261/2
f 217/261/2 215/259/2 218/262/2
f 218/262/2 215/259/2 219/263/2
f 219/263/2 215/259/2 220/264/2
f 220/264/2 215/259/2 221/265/2
f 219/263/2 220/264/2 222/266/2
f 222/266/2 220/264/2 223/267/2
f 223/267/2 220/264/2 224/268/2
f 224/268/2 220/264/2 225/269/2
f 223/267/2 224/268/2 226/270/2
f 226/270/2 224/268/2 227/271/2
f 225/269/2 220/264/2 228/272/2
f 228/272/2 220/264/2 229/273/2
f 233/274/3 234/275/3 231/276/3
f 235/277/3 234/275/3 233/274/3
f 236/278/3 237/279/3 238/280/3
f 239/281/3 237/279/3 236/278/3
f 240/282/3 236/283/3 241/284/3
f 242/285/3 236/283/3 240/282/3
f 243/286/3 244/287/3 242/288/3
f 245/289/3 244/287/3 243/286/3
f 246/290/3 247/291/3 248/292/3
f 249/293/3 247/291/3 246/290/3
f 250/294/3 251/295/3 252/296/3
f 253/297/3 251/295/3 250/294/3
f 254/298/3 251/295/3 253/297/3
f 255/299/3 251/295/3 254/298/3
f 256/300/3 257/301/3 258/302/3
f 256/300/3 255/299/3 257/301/3
f 259/303/3 251/295/3 255/299/3
f 259/303/3 255/299/3 256/300/3
f 260/304/3 261/305/3 262/306/3
f 263/307/3 261/305/3 260/304/3
f 264/308/3 265/309/3 266/310/3
f 267/311/3 265/309/3 264/308/3
f 268/312/3 269/313/3 270/314/3
f 271/315/3 269/313/3 268/312/3
f 272/316/3 273/317/3 274/318/3
f 275/319/3 273/317/3 272/316/3
f 276/320/3 277/321/3 278/322/3
f 279/323/3 277/321/3 276/320/3
f 280/324/3 281/325/3 282/326/3
f 283/327/3 280/324/3 282/326/3
f 283/327/3 284/328/3 280/324/3
f 285/329/3 284/328/3 283/327/3
f 286/330/3 283/327/3 282/326/3
f 287/331/3 286/330/3 282/326/3
f 288/332/3 287/331/3 282/326/3
f 289/333/3 284/328/3 285/329/3
f 290/334/3 288/332/3 282/326/3
f 290/334/3 289/333/3 288/332/3
f 291/335/3 284/328/3 289/333/3
f 291/335/3 289/333/3 290/334/3
f 292/336/3 290/334/3 282/326/3
f 293/337/3 290/334/3 292/336/3
f 294/338/3 295/339/3 296/340/3
f 297/341/3 295/339/3 294/338/3
f 298/342/3 299/343/3 300/344/3
f 301/345/3 299/343/3 298/342/3
f 302/346/3 303/347/3 304/348/3
f 305/349/3 303/347/3 302/346/3
f 306/350/3 307/351/3 308/352/3
f 309/353/3 307/351/3 306/350/3
f 310/354/3 311/355/3 312/356/3
f 313/357/3 311/355/3 310/354/3
f 342/358/3 343/359/3 344/360/3
f 345/361/3 343/359/3 342/358/3
f 346/362/3 347/363/3 348/364/3
f 349/365/3 347/363/3 346/362/3
f 358/366/4 359/367/4 360/368/4
f 360/368/4 359/367/4 361/369/4
f 366/370/4 367/371/4 368/372/4
f 368/372/4 367/371/4 369/373/4
f 370/374/4 371/375/4 372/376/4
f 372/376/4 371/375/4 373/377/4
f 374/378/4 375/379/4 376/380/4
f 376/380/4 375/379/4 377/381/4
f 378/382/4 379/383/4 380/384/4
f 380/384/4 379/383/4 381/385/4
f 382/386/4 383/387/4 384/388/4
f 384/388/4 383/387/4 385/389/4
f 386/390/4 387/391/4 388/392/4
f 389/393/4 390/394/4 388/392/4
f 387/391/4 389/393/4 388/392/4
f 388/392/4 390/394/4 391/395/4
f 392/396/4 388/397/4 393/398/4
f 393/398/4 388/397/4 394/399/4
f 391/395/4 390/394/4 395/400/4
f 394/401/4 395/400/4 396/402/4
f 396/402/4 395/400/4 397/403/4
f 395/400/4 390/394/4 398/404/4
f 397/403/4 395/400/4 398/404/4
f 401/405/4 402/406/4 400/407/4
f 399/408/4 401/405/4 400/407/4
f 400/407/4 402/406/4 403/409/4
f 404/410/4 406/411/4 405/412/4
f 405/412/4 406/411/4 407/413/4
f 407/413/4 406/411/4 408/414/4
f 409/415/4 410/416/4 411/417/4
f 411/417/4 410/416/4 412/418/4
f 413/419/4 414/420/4 415/421/4
f 415/421/4 414/420/4 416/422/4
f 417/423/4 418/424/4 419/425/4
f 419/425/4 418/424/4 420/426/4
f 421/427/4 422/428/4 423/429/4
f 423/429/4 422/428/4 424/430/4
f 425/431/4 426/432/4 427/433/4
f 427/433/4 426/432/4 428/434/4
f 429/435/5 430/436/5 431/437/5
f 432/438/5 430/436/5 429/435/5
f 433/439/5 434/440/5 435/441/5
f 436/442/5 434/440/5 433/439/5
f 437/443/5 432/438/5 429/435/5
f 437/443/5 429/435/5 438/444/5
f 439/445/5 440/446/5 436/442/5
f 439/445/5 436/442/5 433/439/5
f 441/447/5 437/443/5 438/444/5
f 442/448/5 437/443/5 441/447/5
f 443/449/5 440/446/5 439/445/5
f 444/450/5 440/446/5 443/449/5
f 445/451/5 446/452/5 447/453/5
f 448/454/5 446/452/5 445/451/5
f 449/455/5 448/454/5 445/451/5
f 450/456/5 448/454/5 449/455/5
f 451/457/5 452/458/5 453/459/5
f 454/460/5 452/458/5 451/457/5
f 455/461/5 454/460/5 451/457/5
f 456/462/5 454/460/5 455/461/5
f 457/463/5 455/461/5 458/464/5
f 459/465/5 456/462/5 455/461/5
f 459/465/5 455/461/5 457/463/5
f 460/466/5 461/467/5 456/462/5
f 460/466/5 456/462/5 459/465/5
f 462/468/5 461/467/5 460/466/5
f 463/469/5 457/463/5 464/470/5
f 465/471/5 459/465/5 457/463/5
f 465/471/5 457/463/5 463/469/5
f 465/471/5 460/466/5 459/465/5
f 466/472/5 467/473/5 462/468/5
f 466/472/5 460/466/5 465/471/5
f 466/472/5 462/468/5 460/466/5
f 468/474/5 467/473/5 466/472/5
f 469/475/5 470/476/5 471/477/5
f 472/478/5 470/476/5 469/475/5
f 473/479/5 474/480/5 475/481/5
f 476/482/5 474/480/5 473/479/5
f 484/483/6 485/484/6 486/485/6
f 486/485/6 485/484/6 487/486/6
f 489/487/6 490/488/6 491/489/6
f 491/489/6 490/488/6 492/490/6
f 493/491/6 494/492/6 495/493/6
f 495/493/6 494/492/6 496/494/6
f 497/495/6 498/496/6 499/497/6
f 499/497/6 498/496/6 500/498/6
f 495/493/6 496/494/6 501/499/6
f 500/498/6 502/500/6 501/499/6
f 499/497/6 500/498/6 501/499/6
f 496/494/6 499/497/6 501/499/6
f 503/501/6 495/493/6 501/499/6
f 501/499/6 502/500/6 504/502/6
f 505/503/6 506/504/6 507/505/6
f 507/505/6 506/504/6 508/506/6
f 509/507/6 510/508/6 511/509/6
f 511/509/6 510/508/6 512/510/6
f 513/511/6 514/512/6 515/513/6
f 515/513/6 514/512/6 516/514/6
f 517/515/6 518/516/6 519/517/6
f 519/517/6 518/516/6 520/518/6
f 521/519/6 522/520/6 523/521/6
f 523/521/6 522/520/6 524/522/6
f 525/523/6 526/524/6 527/525/6
f 527/525/6 526/524/6 528/526/6
f 529/527/6 530/528/6 531/529/6
f 531/529/6 530/528/6 532/530/6
f 528/526/6 526/524/6 533/531/6
f 529/527/6 531/529/6 534/532/6
f 535/533/6 533/531/6 536/534/6
f 533/531/6 526/524/6 536/534/6
f 534/532/6 537/535/6 538/536/6
f 529/527/6 534/532/6 538/536/6
f 535/533/6 536/534/6 539/537/6
f 539/537/6 536/534/6 540/538/6
f 538/536/6 537/535/6 541/539/6
f 541/539/6 537/535/6 542/540/6
f 543/541/6 544/542/6 545/543/6
f 545/543/6 544/542/6 546/544/6
f 547/545/6 548/546/6 549/547/6
f 549/547/6 548/546/6 550/548/6
f 551/549/6 552/550/6 553/551/6
f 553/551/6 552/550/6 554/552/6
f 555/553/6 556/554/6 557/555/6
f 557/555/6 556/554/6 558/556/6
f 559/557/6 560/558/6 561/559/6
f 561/559/6 560/558/6 562/560/6
f 563/561/6 564/562/6 565/563/6
f 565/563/6 564/562/6 566/564/6
f 567/565/6 568/566/6 569/567/6
f 569/567/6 568/566/6 570/568/6
f 571/569/6 572/570/6 573/571/6
f 573/571/6 572/570/6 574/572/6
f 575/573/6 573/571/6 576/574/6
f 574/572/6 577/575/6 576/574/6
f 573/571/6 574/572/6 576/574/6
f 576/574/6 577/575/6 578/576/6
f 579/577/6 580/578/6 581/579/6
f 581/579/6 580/578/6 582/580/6
f 583/581/6 584/582/6 585/583/6
f 585/583/6 584/582/6 586/584/6
f 587/585/6 588/586/6 589/587/6
f 589/587/6 588/586/6 590/588/6
f 587/585/6 589/587/6 591/589/6
f 590/588/6 588/586/6 592/590/6
f 587/585/6 591/589/6 593/591/6
f 591/589/6 592/590/6 593/591/6
f 592/590/6 588/586/6 594/592/6
f 593/591/6 592/590/6 594/592/6
f 595/593/6 596/594/6 597/595/6
f 597/595/6 596/594/6 598/596/6
f 598/596/6 596/594/6 599/597/6
f 599/597/6 596/594/6 600/598/6
f 598/596/6 599/597/6 601/599/6
f 601/599/6 599/597/6 602/600/6
f 603/601/6 604/602/6 605/603/6
f 606/604/6 607/605/6 608/606/6
f 603/601/6 605/603/6 609/607/6
f 605/603/6 608/606/6 609/607/6
f 608/606/6 607/605/6 610/608/6
f 609/607/6 608/606/6 610/608/6
f 79/164/1 80/3/1 81/609/1
f 82/1/1 80/3/1 79/164/1
f 148/610/2 149/5/2 150/215/2
f 150/215/2 149/5/2 152/7/2
f 230/611/3 231/276/3 232/612/3
f 233/274/3 231/276/3 230/611/3
f 330/57/3 331/60/3 329/56/3
f 332/58/3 331/60/3 330/57/3
f 339/66/3 336/63/3 335/62/3
f 340/67/3 336/63/3 339/66/3
f 87/613/1 88/614/1 89/615/1
f 90/616/1 88/614/1 87/613/1
f 156/617/2 157/618/2 158/619/2
f 158/619/2 157/618/2 159/620/2
f 318/621/3 319/622/3 320/623/3
f 321/624/3 319/622/3 318/621/3
f 621/625/6 622/626/6 623/627/6
f 623/627/6 622/626/6 624/628/6
